# 3ds Max Wavefront OBJ Exporter v0.97b - (c)2007 guruware
# File Created: 23.12.2018 00:06:26

#
# object apm400_bogie_F_main_jbeam
#

v  -1.0000 0.0890 -6.0000
v  -1.0000 0.0890 -5.8494
v  -1.2500 0.0890 -5.8494
v  -1.2500 0.0890 -6.0000
v  -1.0000 0.0890 -3.2988
v  -1.0000 0.0890 -3.1494
v  -1.2500 0.0890 -3.1494
v  -1.2500 0.0890 -3.2988
v  0.0000 0.0890 -6.0000
v  0.0000 0.0890 -5.8494
v  -0.5000 0.0890 -5.8494
v  -0.5000 0.0890 -6.0000
v  0.0000 0.0890 -5.6988
v  -0.0000 0.0890 -5.0988
v  -0.5000 0.0890 -5.0988
v  -0.5000 0.0890 -5.6988
v  -0.0000 0.0890 -3.2988
v  -0.0000 0.0890 -3.1494
v  -0.5000 0.0890 -3.1494
v  -0.5000 0.0890 -3.2988
v  1.0000 0.0890 -6.0000
v  1.0000 0.0890 -5.8494
v  0.5000 0.0890 -5.8494
v  0.5000 0.0890 -6.0000
v  1.0000 0.0890 -3.2988
v  1.0000 0.0890 -3.1494
v  0.5000 0.0890 -3.1494
v  0.5000 0.0890 -3.2988
v  -1.2500 0.6890 -5.8494
v  -1.0000 0.6890 -5.8494
v  -1.0000 0.6890 -6.0000
v  -1.2500 0.6890 -6.0000
v  -1.2500 0.6890 -3.1494
v  -1.0000 0.6890 -3.1494
v  -1.0000 0.6890 -3.2988
v  -1.2500 0.6890 -3.2988
v  -0.5000 0.6890 -5.8494
v  0.0000 0.6890 -5.8494
v  0.0000 0.6890 -6.0000
v  -0.5000 0.6890 -6.0000
v  -0.5000 0.6890 -5.0988
v  -0.0000 0.6890 -5.0988
v  0.0000 0.6890 -5.6988
v  -0.5000 0.6890 -5.6988
v  -0.5000 0.6890 -3.1494
v  -0.0000 0.6890 -3.1494
v  -0.0000 0.6890 -3.2988
v  -0.5000 0.6890 -3.2988
v  0.5000 0.6890 -5.8494
v  1.0000 0.6890 -5.8494
v  1.0000 0.6890 -6.0000
v  0.5000 0.6890 -6.0000
v  0.5000 0.6890 -3.1494
v  1.0000 0.6890 -3.1494
v  1.0000 0.6890 -3.2988
v  0.5000 0.6890 -3.2988
v  -1.2500 0.2090 -5.8494
v  -1.2500 0.2090 -6.0000
v  -0.5000 0.2090 -5.0988
v  -0.5000 0.2090 -5.6988
v  -1.2500 0.2090 -3.1494
v  -1.2500 0.2090 -3.2988
v  -0.5000 0.2090 -5.8494
v  -0.5000 0.4490 -5.8494
v  -0.5000 0.4490 -6.0000
v  -0.5000 0.2090 -6.0000
v  -0.5000 0.4490 -5.0988
v  -0.5000 0.4490 -5.6988
v  -0.5000 0.2090 -3.1494
v  -0.5000 0.4490 -3.1494
v  -0.5000 0.4490 -3.2988
v  -0.5000 0.2090 -3.2988
v  -1.2500 0.4490 -5.8494
v  -1.2500 0.4490 -6.0000
v  -1.2500 0.4490 -3.1494
v  -1.2500 0.4490 -3.2988
v  -1.0000 0.0890 -3.0000
v  -1.0000 0.2090 -3.0000
v  -1.2500 0.2090 -3.0000
v  -1.2500 0.0890 -3.0000
v  -0.0000 0.0890 -3.0000
v  -0.0000 0.2090 -3.0000
v  -0.5000 0.2090 -3.0000
v  -0.5000 0.0890 -3.0000
v  1.0000 0.0890 -3.0000
v  1.0000 0.2090 -3.0000
v  0.5000 0.2090 -3.0000
v  0.5000 0.0890 -3.0000
v  -0.0000 0.4490 -3.0000
v  -0.5000 0.4490 -3.0000
v  -1.0000 0.4490 -3.0000
v  -1.0000 0.6890 -3.0000
v  -1.2500 0.6890 -3.0000
v  -1.2500 0.4490 -3.0000
v  -0.0000 0.6890 -3.0000
v  -0.5000 0.6890 -3.0000
v  1.0000 0.4490 -3.0000
v  1.0000 0.6890 -3.0000
v  0.5000 0.6890 -3.0000
v  0.5000 0.4490 -3.0000
v  1.2500 0.0890 -3.1494
v  1.2500 0.2090 -3.1494
v  1.2500 0.2090 -3.0000
v  1.2500 0.0890 -3.0000
v  0.5000 0.0890 -3.8988
v  0.5000 0.2090 -3.8988
v  0.5000 0.2090 -3.2988
v  1.2500 0.0890 -5.8494
v  1.2500 0.2090 -5.8494
v  1.2500 0.2090 -5.6988
v  1.2500 0.0890 -5.6988
v  0.5000 0.2090 -3.1494
v  0.5000 0.4490 -3.1494
v  0.5000 0.4490 -3.8988
v  0.5000 0.4490 -3.2988
v  0.5000 0.2090 -5.8494
v  0.5000 0.4490 -5.8494
v  0.5000 0.4490 -5.6988
v  0.5000 0.2090 -5.6988
v  1.2500 0.4490 -3.1494
v  1.2500 0.6890 -3.1494
v  1.2500 0.6890 -3.0000
v  1.2500 0.4490 -3.0000
v  0.5000 0.6890 -3.8988
v  1.2500 0.4490 -5.8494
v  1.2500 0.6890 -5.8494
v  1.2500 0.6890 -5.6988
v  1.2500 0.4490 -5.6988
v  1.0000 0.2090 -6.0000
v  1.2500 0.2090 -6.0000
v  1.2500 0.0890 -6.0000
v  0.0000 0.2090 -6.0000
v  0.5000 0.2090 -6.0000
v  -1.0000 0.2090 -6.0000
v  0.0000 0.4490 -6.0000
v  0.5000 0.4490 -6.0000
v  1.0000 0.4490 -6.0000
v  1.2500 0.6890 -6.0000
v  1.2500 0.4490 -6.0000
v  -1.0000 0.4490 -6.0000
v  1.2500 0.0890 -3.2988
v  1.0000 0.2090 -3.2988
v  1.2500 0.2090 -3.2988
v  1.0000 0.2090 -5.6988
v  1.0000 0.0890 -5.6988
v  1.2500 0.4490 -3.2988
v  1.0000 0.4490 -3.2988
v  1.2500 0.6890 -3.2988
v  1.0000 0.6890 -5.6988
v  1.0000 0.4490 -5.6988
v  -1.2500 0.0890 -5.6988
v  -1.0000 0.0890 -5.6988
v  -1.0000 0.2090 -5.6988
v  -1.2500 0.2090 -5.6988
v  -1.0000 0.2090 -5.8494
v  -1.0000 0.2090 -3.2988
v  -1.0000 0.2090 -3.1494
v  -1.0000 0.4490 -5.8494
v  -1.0000 0.4490 -5.6988
v  -1.2500 0.4490 -5.6988
v  -1.0000 0.4490 -3.1494
v  -1.0000 0.6890 -5.6988
v  -1.2500 0.6890 -5.6988
v  -1.0000 0.4490 -3.2988
v  1.0000 0.2090 -3.1494
v  1.0000 0.2090 -5.8494
v  1.0000 0.4490 -3.1494
v  1.0000 0.4490 -5.8494
v  -0.0000 0.0890 -3.8988
v  -0.0000 0.0890 -4.4988
v  0.5000 0.0890 -4.4988
v  -0.5000 0.6890 -3.8988
v  -0.0000 0.6890 -3.8988
v  -0.0000 0.6890 -4.4988
v  -0.5000 0.6890 -4.4988
v  -0.5000 0.0890 -3.8988
v  -0.5000 0.2090 -3.8988
v  -0.5000 0.2090 -4.4988
v  -0.5000 0.0890 -4.4988
v  -0.5000 0.4490 -3.8988
v  -0.5000 0.4490 -4.4988
v  0.5000 0.0890 -5.0988
v  0.5000 0.2090 -5.0988
v  0.5000 0.2090 -4.4988
v  0.5000 0.4490 -5.0988
v  0.5000 0.4490 -4.4988
v  0.5000 0.6890 -5.0988
v  0.5000 0.6890 -4.4988
v  0.5000 0.0890 -5.6988
v  0.5000 0.6890 -5.6988
# 190 vertices

vn -0.0000 -1.0000 0.0000
vn 0.0000 -1.0000 -0.0000
vn 0.0000 1.0000 -0.0000
vn -0.0000 1.0000 -0.0000
vn -0.0000 1.0000 0.0000
vn 0.0000 1.0000 0.0000
vn -1.0000 0.0000 -0.0000
vn -1.0000 0.0000 0.0000
vn -0.0000 0.0000 1.0000
vn 1.0000 0.0000 0.0000
vn 1.0000 -0.0000 0.0000
vn 1.0000 0.0000 -0.0000
vn -0.0000 0.0000 -1.0000
vn 0.0000 0.0000 -1.0000
vn 0.0000 -0.0000 -1.0000
vn -0.0000 -0.0000 -1.0000
vn 0.0000 -1.0000 0.0000
vn 1.0000 -0.0000 -0.0000
vn 0.0000 0.0000 1.0000
vn -0.0000 -1.0000 -0.0000
# 20 vertex normals

vt 1.0000 0.1667 0.0000
vt 0.8333 0.1667 0.0000
vt 0.8333 0.0000 0.0000
vt 1.0000 0.0000 0.0000
vt 0.3333 0.1667 0.0000
vt 0.1667 0.1667 0.0000
vt 0.1667 0.0000 0.0000
vt 0.3333 0.0000 0.0000
vt 1.0000 0.5000 0.0000
vt 0.8333 0.5000 0.0000
vt 0.8333 0.3333 0.0000
vt 1.0000 0.3333 0.0000
vt 0.6667 0.5000 0.0000
vt 0.5833 0.5000 0.0000
vt 0.5833 0.3333 0.0000
vt 0.6667 0.3333 0.0000
vt 0.3333 0.5000 0.0000
vt 0.1667 0.5000 0.0000
vt 0.1667 0.3333 0.0000
vt 0.3333 0.3333 0.0000
vt 1.0000 0.8333 0.0000
vt 0.8333 0.8333 0.0000
vt 0.8333 0.6667 0.0000
vt 1.0000 0.6667 0.0000
vt 0.3333 0.8333 0.0000
vt 0.1667 0.8333 0.0000
vt 0.1667 0.6667 0.0000
vt 0.3333 0.6667 0.0000
vt 0.0000 0.1667 0.0000
vt 0.0000 0.0000 0.0000
vt 0.6667 0.1667 0.0000
vt 0.6667 0.0000 0.0000
vt 0.0000 0.5000 0.0000
vt 0.0000 0.3333 0.0000
vt 0.4167 0.3333 0.0000
vt 0.4167 0.5000 0.0000
vt 0.0000 0.8333 0.0000
vt 0.0000 0.6667 0.0000
vt 0.6667 0.8333 0.0000
vt 0.6667 0.6667 0.0000
vt 0.4167 0.0000 0.0000
vt 0.4167 0.6667 0.0000
vt 0.1667 1.0000 0.0000
vt 0.0000 1.0000 0.0000
vt 0.4167 1.0000 0.0000
vt 0.3333 1.0000 0.0000
vt 0.8333 1.0000 0.0000
vt 0.6667 1.0000 0.0000
vt 0.5000 0.0000 0.0000
vt 0.5000 0.3333 0.0000
vt 0.5000 0.6667 0.0000
vt 0.5000 1.0000 0.0000
vt 0.5000 0.5000 0.0000
vt 0.5833 0.0000 0.0000
vt 0.5833 0.6667 0.0000
vt 0.5833 1.0000 0.0000
vt 1.0000 1.0000 0.0000
# 57 texture coords

g apm400_bogie_F_main_jbeam
s 2
f 1/1/1 2/2/1 3/3/1 
f 3/3/1 4/4/1 1/1/1 
f 5/5/1 6/6/1 7/7/1 
f 7/7/1 8/8/1 5/5/1 
f 9/9/1 10/10/1 11/11/1 
f 11/11/1 12/12/1 9/9/1 
f 13/13/1 14/14/2 15/15/2 
f 15/15/2 16/16/1 13/13/1 
f 17/17/1 18/18/1 19/19/1 
f 19/19/1 20/20/1 17/17/1 
f 21/21/1 22/22/1 23/23/1 
f 23/23/1 24/24/1 21/21/1 
f 25/25/1 26/26/1 27/27/1 
f 27/27/1 28/28/1 25/25/1 
s 4
f 29/7/3 30/6/3 31/29/3 
f 31/29/3 32/30/3 29/7/3 
f 33/3/4 34/2/4 35/31/4 
f 35/31/4 36/32/3 33/3/4 
f 37/19/3 38/18/4 39/33/3 
f 39/33/3 40/34/3 37/19/3 
f 41/35/5 42/36/6 43/17/3 
f 43/17/3 44/20/3 41/35/5 
f 45/11/3 46/10/3 47/13/3 
f 47/13/3 48/16/3 45/11/3 
f 49/27/4 50/26/3 51/37/3 
f 51/37/3 52/38/4 49/27/4 
f 53/23/3 54/22/3 55/39/3 
f 55/39/3 56/40/3 53/23/3 
s 8
f 3/7/7 57/19/7 58/34/7 
f 58/34/7 4/30/7 3/7/7 
f 15/41/7 59/35/7 60/20/7 
f 60/20/7 16/8/8 15/41/7 
f 7/3/7 61/11/7 62/16/7 
f 62/16/7 8/32/7 7/3/7 
f 63/19/7 64/27/7 65/38/7 
f 65/38/7 66/34/7 63/19/7 
f 59/35/7 67/42/7 68/28/7 
f 68/28/7 60/20/7 59/35/7 
f 69/11/7 70/23/7 71/40/7 
f 71/40/7 72/16/7 69/11/7 
f 73/27/7 29/43/7 32/44/7 
f 32/44/7 74/38/7 73/27/7 
f 67/42/7 41/45/7 44/46/8 
f 44/46/8 68/28/7 67/42/7 
f 75/23/7 33/47/7 36/48/7 
f 36/48/7 76/40/7 75/23/7 
s 16
f 77/7/9 78/19/9 79/34/9 
f 79/34/9 80/30/9 77/7/9 
f 81/49/9 82/50/9 83/20/9 
f 83/20/9 84/8/9 81/49/9 
f 85/3/9 86/11/9 87/16/9 
f 87/16/9 88/32/9 85/3/9 
f 82/50/9 89/51/9 90/28/9 
f 90/28/9 83/20/9 82/50/9 
f 91/27/9 92/43/9 93/44/9 
f 93/44/9 94/38/9 91/27/9 
f 89/51/9 95/52/9 96/46/9 
f 96/46/9 90/28/9 89/51/9 
f 97/23/9 98/47/9 99/48/9 
f 99/48/9 100/40/9 97/23/9 
s 32
f 101/7/10 102/19/10 103/34/10 
f 103/34/10 104/30/10 101/7/10 
f 105/41/11 106/35/11 107/20/11 
f 107/20/11 28/8/12 105/41/11 
f 108/3/10 109/11/10 110/16/10 
f 110/16/10 111/32/10 108/3/10 
f 112/19/10 113/27/10 100/38/10 
f 100/38/10 87/34/10 112/19/10 
f 106/35/11 114/42/10 115/28/10 
f 115/28/10 107/20/11 106/35/11 
f 116/11/10 117/23/10 118/40/10 
f 118/40/10 119/16/10 116/11/10 
f 120/27/10 121/43/10 122/44/10 
f 122/44/10 123/38/10 120/27/10 
f 114/42/10 124/45/10 56/46/10 
f 56/46/10 115/28/10 114/42/10 
f 125/23/10 126/47/10 127/48/10 
f 127/48/10 128/40/10 125/23/10 
s 64
f 21/7/13 129/19/13 130/34/14 
f 130/34/14 131/30/14 21/7/13 
f 9/49/15 132/50/14 133/20/15 
f 133/20/15 24/8/14 9/49/15 
f 1/3/14 134/11/14 66/16/14 
f 66/16/14 12/32/14 1/3/14 
f 132/50/14 135/51/14 136/28/15 
f 136/28/15 133/20/15 132/50/14 
f 137/27/15 51/43/15 138/44/16 
f 138/44/16 139/38/13 137/27/15 
f 135/51/14 39/52/14 52/46/14 
f 52/46/14 136/28/15 135/51/14 
f 140/23/14 31/47/14 40/48/14 
f 40/48/14 65/40/14 140/23/14 
s off
f 141/8/14 25/8/14 142/20/14 
f 142/20/14 143/20/14 141/8/14 
f 110/16/9 144/16/9 145/32/9 
f 145/32/9 111/32/9 110/16/9 
f 146/28/14 147/28/14 55/46/14 
f 55/46/14 148/46/14 146/28/14 
f 127/48/9 149/48/9 150/40/9 
f 150/40/9 128/40/9 127/48/9 
f 151/8/9 152/8/9 153/20/9 
f 153/20/9 154/20/9 151/8/9 
f 57/19/3 155/19/3 134/34/3 
f 134/34/3 58/34/3 57/19/3 
f 62/16/16 156/16/16 5/32/16 
f 5/32/14 8/32/14 62/16/14 
f 61/11/3 157/11/3 156/16/3 
f 156/16/3 62/16/3 61/11/3 
f 73/27/2 158/27/2 159/28/2 
f 159/28/2 160/28/2 73/27/2 
f 75/23/17 161/23/17 91/24/17 
f 91/24/1 94/24/1 75/23/1 
f 160/28/9 159/28/9 162/46/9 
f 162/46/9 163/46/9 160/28/9 
f 36/48/13 35/48/13 164/40/13 
f 164/40/13 76/40/13 36/48/13 
f 102/19/3 165/19/3 86/34/3 
f 86/34/3 103/34/3 102/19/3 
f 109/11/4 166/11/4 144/16/4 
f 144/16/4 110/16/4 109/11/4 
f 120/27/2 167/27/2 147/28/2 
f 147/28/2 146/28/2 120/27/2 
f 125/23/17 168/23/17 137/24/17 
f 137/24/1 139/24/1 125/23/1 
s 2
f 105/42/2 169/36/2 170/53/2 
f 170/53/2 171/51/2 105/42/2 
s 4
f 172/15/5 173/14/5 174/53/3 
f 174/53/3 175/50/3 172/15/5 
s 8
f 176/54/7 177/15/7 178/50/7 
f 178/50/7 179/49/7 176/54/7 
f 177/15/7 180/55/7 181/51/7 
f 181/51/7 178/50/7 177/15/7 
f 180/55/7 172/56/7 175/52/7 
f 175/52/7 181/51/7 180/55/7 
s 32
f 182/54/12 183/15/10 184/50/12 
f 184/50/12 171/49/18 182/54/12 
f 183/15/10 185/55/10 186/51/12 
f 186/51/12 184/50/12 183/15/10 
f 185/55/10 187/56/10 188/52/12 
f 188/52/12 186/51/12 185/55/10 
s 2
f 171/51/2 170/53/2 14/14/2 
f 14/14/2 182/55/2 171/51/2 
s 4
f 175/50/3 174/53/3 42/36/6 
f 42/36/6 41/35/5 175/50/3 
s 8
f 179/49/7 178/50/7 59/35/7 
f 59/35/7 15/41/7 179/49/7 
f 178/50/7 181/51/7 67/42/7 
f 67/42/7 59/35/7 178/50/7 
f 181/51/7 175/52/7 41/45/7 
f 41/45/7 67/42/7 181/51/7 
s 32
f 189/32/10 119/16/10 183/15/10 
f 183/15/10 182/54/12 189/32/10 
f 119/16/10 118/40/10 185/55/10 
f 185/55/10 183/15/10 119/16/10 
f 118/40/10 190/48/10 187/56/10 
f 187/56/10 185/55/10 118/40/10 
f 171/49/18 184/50/12 106/35/11 
f 106/35/11 105/41/11 171/49/18 
f 184/50/12 186/51/12 114/42/10 
f 114/42/10 106/35/11 184/50/12 
f 186/51/12 188/52/12 124/45/10 
f 124/45/10 114/42/10 186/51/12 
s 2
f 28/28/1 17/17/1 169/36/2 
f 169/36/2 105/42/2 28/28/1 
s 4
f 48/16/3 47/13/3 173/14/5 
f 173/14/5 172/15/5 48/16/3 
s 8
f 20/32/7 72/16/7 177/15/7 
f 177/15/7 176/54/7 20/32/7 
f 72/16/7 71/40/7 180/55/7 
f 180/55/7 177/15/7 72/16/7 
f 71/40/7 48/48/7 172/56/7 
f 172/56/7 180/55/7 71/40/7 
s 2
f 24/24/1 23/23/1 10/10/1 
f 10/10/1 9/9/1 24/24/1 
f 189/40/1 182/55/2 14/14/2 
f 14/14/2 13/13/1 189/40/1 
f 28/28/1 27/27/1 18/18/1 
f 18/18/1 17/17/1 28/28/1 
s 4
f 190/28/5 49/27/4 38/18/4 
f 38/18/4 43/17/3 190/28/5 
f 187/42/5 190/28/5 43/17/3 
f 43/17/3 42/36/6 187/42/5 
f 99/24/3 53/23/3 46/10/3 
f 46/10/3 95/9/3 99/24/3 
s 16
f 88/32/9 87/16/9 82/50/9 
f 82/50/9 81/49/9 88/32/9 
f 87/16/9 100/40/9 89/51/9 
f 89/51/9 82/50/9 87/16/9 
f 100/40/9 99/48/9 95/52/9 
f 95/52/9 89/51/9 100/40/9 
s 64
f 12/32/14 66/16/14 132/50/14 
f 132/50/14 9/49/15 12/32/14 
f 66/16/14 65/40/14 135/51/14 
f 135/51/14 132/50/14 66/16/14 
f 65/40/14 40/48/14 39/52/14 
f 39/52/14 135/51/14 65/40/14 
s 2
f 176/35/2 179/50/2 170/53/2 
f 170/53/2 169/36/2 176/35/2 
s 4
f 124/55/5 188/51/3 174/53/3 
f 174/53/3 173/14/5 124/55/5 
s 2
f 179/50/2 15/15/2 14/14/2 
f 14/14/2 170/53/2 179/50/2 
s 4
f 188/51/3 187/42/5 42/36/6 
f 42/36/6 174/53/3 188/51/3 
s 2
f 20/20/1 176/35/2 169/36/2 
f 169/36/2 17/17/1 20/20/1 
s 4
f 56/40/3 124/55/5 173/14/5 
f 173/14/5 47/13/3 56/40/3 
s 2
f 12/12/1 11/11/1 2/2/1 
f 2/2/1 1/1/1 12/12/1 
f 20/20/1 19/19/1 6/6/1 
f 6/6/1 5/5/1 20/20/1 
s 4
f 44/20/3 37/19/3 30/6/3 
f 30/6/3 162/5/3 44/20/3 
f 96/12/3 45/11/3 34/2/4 
f 34/2/4 92/1/3 96/12/3 
s 16
f 84/8/9 83/20/9 78/19/9 
f 78/19/9 77/7/9 84/8/9 
f 90/28/9 96/46/9 92/43/9 
f 92/43/9 91/27/9 90/28/9 
s 64
f 4/4/14 58/12/14 134/11/14 
f 134/11/14 1/3/14 4/4/14 
f 74/24/14 32/57/14 31/47/14 
f 31/47/14 140/23/14 74/24/14 
s off
f 16/8/19 60/20/19 153/20/19 
f 153/20/19 152/8/19 16/8/19 
f 60/20/3 63/19/3 155/19/3 
f 155/19/3 153/20/3 60/20/3 
f 72/16/13 20/32/13 5/32/13 
f 5/32/15 156/16/15 72/16/15 
f 83/12/3 69/11/3 157/11/3 
f 157/11/3 78/12/3 83/12/3 
f 65/38/1 64/27/1 158/27/1 
f 158/27/17 140/38/17 65/38/17 
f 71/40/20 70/23/20 161/23/20 
f 161/23/1 164/40/1 71/40/1 
f 68/28/19 44/46/19 162/46/19 
f 162/46/19 159/28/19 68/28/19 
f 48/48/14 71/40/14 164/40/14 
f 164/40/14 35/48/14 48/48/14 
s 2
f 131/57/1 108/47/1 22/22/1 
f 22/22/1 21/21/1 131/57/1 
f 141/46/1 101/43/1 26/26/1 
f 26/26/1 25/25/1 141/46/1 
s 4
f 127/46/3 126/43/3 50/26/3 
f 50/26/3 149/25/3 127/46/3 
f 122/57/3 121/47/3 54/22/3 
f 54/22/3 98/21/3 122/57/3 
s 16
f 104/4/9 103/12/9 86/11/9 
f 86/11/9 85/3/9 104/4/9 
f 123/24/9 122/57/9 98/47/9 
f 98/47/9 97/23/9 123/24/9 
s 64
f 24/8/14 133/20/15 129/19/13 
f 129/19/13 21/7/13 24/8/14 
f 136/28/15 52/46/14 51/43/15 
f 51/43/15 137/27/15 136/28/15 
s off
f 28/8/13 107/20/13 142/20/13 
f 142/20/13 25/8/13 28/8/13 
f 119/16/19 189/32/19 145/32/19 
f 145/32/19 144/16/19 119/16/19 
f 115/28/13 56/46/13 55/46/13 
f 55/46/13 147/28/13 115/28/13 
f 190/48/19 118/40/19 150/40/19 
f 150/40/19 149/48/19 190/48/19 
f 107/20/3 112/19/3 165/19/3 
f 165/19/4 142/20/4 107/20/4 
f 133/12/3 116/11/3 166/11/3 
f 166/11/3 129/12/3 133/12/3 
f 100/38/1 113/27/1 167/27/1 
f 167/27/1 97/38/1 100/38/1 
f 118/40/20 117/23/20 168/23/20 
f 168/23/1 150/40/1 118/40/1 
s 2
f 152/31/1 151/32/1 3/3/1 
f 3/3/1 2/2/1 152/31/1 
f 13/13/1 16/16/1 11/11/1 
f 11/11/1 10/10/1 13/13/1 
f 145/39/1 189/40/1 23/23/1 
f 23/23/1 22/22/1 145/39/1 
s 4
f 163/8/3 162/5/3 30/6/3 
f 30/6/3 29/7/3 163/8/3 
f 44/20/3 43/17/3 38/18/4 
f 38/18/4 37/19/3 44/20/3 
f 190/28/5 149/25/3 50/26/3 
f 50/26/3 49/27/4 190/28/5 
s 8
f 151/8/7 154/20/7 57/19/7 
f 57/19/7 3/7/7 151/8/7 
f 60/20/7 68/28/7 64/27/7 
f 64/27/7 63/19/7 60/20/7 
f 160/28/7 163/46/7 29/43/7 
f 29/43/7 73/27/7 160/28/7 
s 32
f 131/4/10 130/12/10 109/11/10 
f 109/11/10 108/3/10 131/4/10 
f 133/12/10 136/24/10 117/23/10 
f 117/23/10 116/11/10 133/12/10 
f 139/24/10 138/57/10 126/47/10 
f 126/47/10 125/23/10 139/24/10 
s off
f 154/20/4 153/20/4 155/19/4 
f 155/19/3 57/19/3 154/20/3 
f 74/38/1 140/38/1 158/27/1 
f 158/27/1 73/27/1 74/38/1 
f 130/12/4 129/12/4 166/11/4 
f 166/11/4 109/11/4 130/12/4 
f 128/40/1 150/40/1 168/23/1 
f 168/23/17 125/23/17 128/40/17 
s 2
f 189/40/1 13/13/1 10/10/1 
f 10/10/1 23/23/1 189/40/1 
s 4
f 52/38/4 39/33/3 38/18/4 
f 38/18/4 49/27/4 52/38/4 
s 2
f 16/16/1 152/31/1 2/2/1 
f 2/2/1 11/11/1 16/16/1 
s 4
f 40/34/3 31/29/3 30/6/3 
f 30/6/3 37/19/3 40/34/3 
s off
f 66/34/4 134/34/4 155/19/4 
f 155/19/3 63/19/3 66/34/3 
f 68/28/2 159/28/2 158/27/2 
f 158/27/2 64/27/2 68/28/2 
s 2
f 111/48/1 145/39/1 22/22/1 
f 22/22/1 108/47/1 111/48/1 
s 4
f 138/44/3 51/37/3 50/26/3 
f 50/26/3 126/43/3 138/44/3 
s off
f 119/16/3 144/16/3 166/11/3 
f 166/11/3 116/11/3 119/16/3 
f 136/24/2 137/24/2 168/23/2 
f 168/23/1 117/23/1 136/24/1 
s 2
f 77/29/1 80/30/1 7/7/1 
f 7/7/1 6/6/1 77/29/1 
f 81/33/1 84/34/1 19/19/1 
f 19/19/1 18/18/1 81/33/1 
f 85/37/1 88/38/1 27/27/1 
f 27/27/1 26/26/1 85/37/1 
s 4
f 93/4/4 92/1/3 34/2/4 
f 34/2/4 33/3/4 93/4/4 
f 96/12/3 95/9/3 46/10/3 
f 46/10/3 45/11/3 96/12/3 
f 99/24/3 98/21/3 54/22/3 
f 54/22/3 53/23/3 99/24/3 
s 8
f 80/4/7 79/12/7 61/11/7 
f 61/11/7 7/3/7 80/4/7 
f 83/12/7 90/24/7 70/23/7 
f 70/23/7 69/11/7 83/12/7 
f 94/24/7 93/57/7 33/47/7 
f 33/47/7 75/23/7 94/24/7 
s 32
f 141/8/10 143/20/10 102/19/10 
f 102/19/10 101/7/10 141/8/10 
f 107/20/10 115/28/10 113/27/10 
f 113/27/10 112/19/10 107/20/10 
f 146/28/10 148/46/10 121/43/10 
f 121/43/10 120/27/10 146/28/10 
s off
f 79/12/4 78/12/4 157/11/4 
f 157/11/3 61/11/3 79/12/3 
f 76/40/17 164/40/17 161/23/17 
f 161/23/17 75/23/17 76/40/17 
f 143/20/3 142/20/3 165/19/3 
f 165/19/3 102/19/3 143/20/3 
f 123/38/1 97/38/1 167/27/1 
f 167/27/1 120/27/1 123/38/1 
s 2
f 88/38/1 81/33/1 18/18/1 
f 18/18/1 27/27/1 88/38/1 
s 4
f 56/40/3 47/13/3 46/10/3 
f 46/10/3 53/23/3 56/40/3 
s 2
f 84/34/1 77/29/1 6/6/1 
f 6/6/1 19/19/1 84/34/1 
s 4
f 48/16/3 35/31/4 34/2/4 
f 34/2/4 45/11/3 48/16/3 
s off
f 72/16/4 156/16/4 157/11/4 
f 157/11/3 69/11/3 72/16/3 
f 90/24/2 91/24/2 161/23/2 
f 161/23/1 70/23/1 90/24/1 
s 2
f 104/44/1 85/37/1 26/26/1 
f 26/26/1 101/43/1 104/44/1 
s 4
f 148/48/3 55/39/3 54/22/3 
f 54/22/3 121/47/3 148/48/3 
s off
f 87/34/4 86/34/4 165/19/4 
f 165/19/3 112/19/3 87/34/3 
f 115/28/2 147/28/2 167/27/2 
f 167/27/2 113/27/2 115/28/2 
# 376 faces

