<?xml version="1.0" encoding="utf-8"?>
<COLLADA xmlns="http://www.collada.org/2005/11/COLLADASchema" version="1.4.1">
  <asset><contributor><author></author><authoring_tool>FBX COLLADA exporter</authoring_tool><comments></comments></contributor><created>2018-12-20T03:00:10Z</created><keywords></keywords><modified>2018-12-20T03:00:10Z</modified><revision></revision><subject></subject><title></title><unit meter="1.000000" name="centimeter"></unit><up_axis>Y_UP</up_axis></asset>
  <library_geometries>
    <geometry id="apm400_glass.jbeam-lib" name="apm400_glass.jbeamMesh">
      <mesh>
        <source id="apm400_glass.jbeam-POSITION">
          <float_array id="apm400_glass.jbeam-POSITION-array" count="168">
-1.370042 -1.086077 -0.000000
1.370042 -1.086077 -0.000000
-1.370042 1.086077 0.000000
1.370041 1.086077 0.000000
-1.297130 -1.086077 1.183227
1.297130 -1.086077 1.183227
-1.297130 1.086077 1.183227
1.297130 1.086077 1.183227
-1.370042 3.653167 0.000000
1.370041 3.653167 0.000000
-1.297130 3.653167 1.183227
1.297130 3.653167 1.183227
-1.354857 5.145784 0.000000
1.354995 5.145784 0.000000
-1.275072 5.145784 1.183227
1.275084 5.145784 1.183227
-1.354857 5.884102 0.000000
0.884948 6.355079 0.000000
-1.201827 5.952235 1.183227
1.275084 5.774733 1.183227
1.370042 -3.653167 -0.000000
-1.370041 -3.653167 -0.000000
1.297130 -3.653167 1.183227
-1.297130 -3.653167 1.183227
1.354857 -5.145784 -0.000001
-1.354994 -5.145784 -0.000000
1.275072 -5.145784 1.183227
-1.275084 -5.145784 1.183227
1.354857 -5.884102 -0.000000
-0.884947 -6.355079 -0.000000
1.201827 -5.952235 1.183227
-1.275084 -5.774733 1.183227
-1.061963 6.281689 0.000000
1.281749 6.061603 0.000000
-0.982178 6.172320 1.183227
0.982188 6.172320 1.183227
1.061963 -6.281689 -0.000000
-1.281749 -6.061603 -0.000000
0.982178 -6.172320 1.183227
-0.982187 -6.172320 1.183227
-1.281612 6.061603 0.000000
1.062098 6.281689 0.000000
-1.275072 5.774733 1.183227
1.201839 5.952234 1.183227
1.281612 -6.061603 -0.000000
-1.062097 -6.281689 -0.000000
1.275072 -5.774733 1.183227
-1.201839 -5.952234 1.183227
-0.884813 6.355079 0.000000
1.354995 5.884102 0.000000
-0.805028 6.245711 1.183227
0.805037 6.245711 1.183227
0.884814 -6.355079 -0.000000
-1.354994 -5.884102 -0.000000
0.805029 -6.245711 1.183227
-0.805037 -6.245711 1.183227
</float_array>
          <technique_common>
            <accessor source="#apm400_glass.jbeam-POSITION-array" count="56" stride="3">
              <param name="X" type="float"/>
              <param name="Y" type="float"/>
              <param name="Z" type="float"/>
            </accessor>
          </technique_common>
        </source>
        <source id="apm400_glass.jbeam-Normal0">
          <float_array id="apm400_glass.jbeam-Normal0-array" count="990">
-0.000000 0.000000 -1.000000
0.000000 0.000000 -1.000000
-0.000000 0.000000 -1.000000
-0.000000 0.000000 -1.000000
-0.000000 0.000000 -1.000000
-0.000000 0.000000 -1.000000
0.000000 0.000000 1.000000
0.000000 0.000000 1.000000
0.000000 0.000000 1.000000
0.000000 0.000000 1.000000
0.000000 0.000000 1.000000
0.000000 0.000000 1.000000
0.000000 -1.000000 0.000000
0.000000 -1.000000 0.000000
0.000000 -1.000000 0.000000
0.000000 -1.000000 0.000000
0.000000 -1.000000 0.000000
0.000000 -1.000000 0.000000
0.998107 0.000000 0.061504
0.998107 0.000000 0.061504
0.998107 0.000000 0.061504
0.998107 0.000000 0.061504
0.998107 0.000000 0.061504
0.998107 0.000000 0.061504
0.000000 0.995755 0.092040
0.000000 0.995755 0.092040
0.000000 0.995755 0.092040
0.000000 0.995755 0.092040
0.000000 0.995755 0.092040
0.000000 0.995755 0.092040
-0.998107 -0.000000 0.061504
-0.998107 -0.000000 0.061504
-0.998107 -0.000000 0.061504
-0.998107 -0.000000 0.061504
-0.998107 0.000000 0.061504
-0.998107 -0.000000 0.061504
0.000000 0.000000 -1.000000
0.000000 0.000000 -1.000000
0.000000 0.000000 -1.000000
0.000000 0.000000 -1.000000
0.000000 0.000000 -1.000000
0.000000 0.000000 -1.000000
0.000000 0.000000 1.000000
0.000000 0.000000 1.000000
0.000000 0.000000 1.000000
0.000000 0.000000 1.000000
0.000000 0.000000 1.000000
0.000000 0.000000 1.000000
0.998107 0.000000 0.061504
0.998107 0.000000 0.061504
0.998107 0.000000 0.061504
0.998107 0.000000 0.061504
0.998107 0.000000 0.061504
0.998107 0.000000 0.061504
-0.998107 0.000000 0.061504
-0.998107 0.000000 0.061504
-0.998107 0.000000 0.061504
-0.998107 0.000000 0.061504
-0.998107 0.000000 0.061504
-0.998107 0.000000 0.061504
0.000000 0.000000 -1.000000
0.000000 0.000000 -1.000000
0.000000 0.000000 -1.000000
0.000000 0.000000 -1.000000
0.000000 0.000000 -1.000000
0.000000 0.000000 -1.000000
-0.997998 0.014749 0.061498
-0.997998 0.014749 0.061498
-0.997998 0.014749 0.061498
-0.997683 0.010150 0.067274
-0.997683 0.010150 0.067274
-0.997683 0.010150 0.067274
0.000000 0.000000 1.000000
0.000000 0.000000 1.000000
0.000000 0.000000 1.000000
0.000000 0.000000 1.000000
0.000000 0.000000 1.000000
0.000000 0.000000 1.000000
0.998056 0.010061 0.061501
0.998056 0.010061 0.061501
0.998056 0.010061 0.061501
0.997619 0.014734 0.067375
0.997619 0.014734 0.067375
0.997619 0.014734 0.067375
0.000000 0.000000 -1.000000
0.000000 0.000000 -1.000000
0.000000 0.000000 -1.000000
-0.000000 0.000000 -1.000000
-0.000000 0.000000 -1.000000
-0.000000 0.000000 -1.000000
-0.997734 -0.000000 0.067277
-0.997734 -0.000000 0.067277
-0.997734 -0.000000 0.067277
-0.997734 -0.000000 0.067277
-0.997734 -0.000000 0.067277
-0.997734 -0.000000 0.067277
0.000000 -0.000000 1.000000
0.000000 -0.000000 1.000000
0.000000 -0.000000 1.000000
-0.000000 -0.000000 1.000000
-0.000000 -0.000000 1.000000
-0.000000 -0.000000 1.000000
0.997727 -0.000000 0.067382
0.997727 -0.000000 0.067382
0.997727 -0.000000 0.067382
0.997727 -0.000000 0.067382
0.997727 -0.000000 0.067382
0.997727 -0.000000 0.067382
0.000000 -0.995755 0.092040
0.000000 -0.995755 0.092040
0.000000 -0.995755 0.092040
0.000000 -0.995755 0.092040
0.000000 -0.995755 0.092040
0.000000 -0.995755 0.092040
-0.000000 0.000000 -1.000000
-0.000000 0.000000 -1.000000
-0.000000 0.000000 -1.000000
-0.000000 0.000000 -1.000000
-0.000000 0.000000 -1.000000
-0.000000 0.000000 -1.000000
0.000000 -0.000000 1.000000
0.000000 -0.000000 1.000000
0.000000 -0.000000 1.000000
0.000000 -0.000000 1.000000
0.000000 -0.000000 1.000000
0.000000 -0.000000 1.000000
-0.998107 -0.000000 0.061504
-0.998107 -0.000000 0.061504
-0.998107 -0.000000 0.061504
-0.998107 -0.000000 0.061504
-0.998107 -0.000000 0.061504
-0.998107 -0.000000 0.061504
0.998107 0.000000 0.061504
0.998107 0.000000 0.061504
0.998107 0.000000 0.061504
0.998107 0.000000 0.061504
0.998107 0.000000 0.061504
0.998107 0.000000 0.061504
-0.000000 0.000000 -1.000000
-0.000000 0.000000 -1.000000
-0.000000 0.000000 -1.000000
-0.000000 0.000000 -1.000000
-0.000000 0.000000 -1.000000
-0.000000 0.000000 -1.000000
0.997998 -0.014748 0.061498
0.997998 -0.014748 0.061498
0.997998 -0.014748 0.061498
0.997683 -0.010149 0.067274
0.997683 -0.010149 0.067274
0.997683 -0.010149 0.067274
0.000000 -0.000000 1.000000
0.000000 -0.000000 1.000000
0.000000 -0.000000 1.000000
0.000000 -0.000000 1.000000
0.000000 -0.000000 1.000000
0.000000 -0.000000 1.000000
-0.998056 -0.010062 0.061501
-0.998056 -0.010062 0.061501
-0.998056 -0.010062 0.061501
-0.997619 -0.014735 0.067375
-0.997619 -0.014735 0.067375
-0.997619 -0.014735 0.067375
-0.000000 -0.000000 -1.000000
-0.000000 -0.000000 -1.000000
-0.000000 -0.000000 -1.000000
-0.000000 -0.000000 -1.000000
-0.000000 -0.000000 -1.000000
-0.000000 -0.000000 -1.000000
0.997734 0.000000 0.067277
0.997734 0.000000 0.067277
0.997734 0.000000 0.067277
0.997734 0.000000 0.067277
0.997734 0.000000 0.067277
0.997734 0.000000 0.067277
0.000000 0.000000 1.000000
0.000000 0.000000 1.000000
0.000000 0.000000 1.000000
0.000000 0.000000 1.000000
0.000000 0.000000 1.000000
0.000000 0.000000 1.000000
-0.997727 -0.000000 0.067382
-0.997727 -0.000000 0.067382
-0.997727 -0.000000 0.067382
-0.997727 -0.000000 0.067382
-0.997727 -0.000000 0.067382
-0.997727 -0.000000 0.067382
-0.000000 0.000000 -1.000000
-0.000000 0.000000 -1.000000
-0.000000 0.000000 -1.000000
0.000000 -0.000001 1.000000
0.000000 -0.000001 1.000000
0.000000 -0.000001 1.000000
-0.000000 -0.000000 -1.000000
-0.000000 -0.000000 -1.000000
-0.000000 -0.000000 -1.000000
-0.000000 0.000001 1.000000
-0.000000 0.000001 1.000000
-0.000000 0.000001 1.000000
-0.703330 0.701936 0.112307
-0.703330 0.701936 0.112307
-0.703330 0.701936 0.112307
-0.703330 0.701936 0.112307
-0.703330 0.701936 0.112307
-0.703330 0.701936 0.112307
0.703322 0.701932 0.112381
0.703322 0.701932 0.112381
0.703322 0.701932 0.112381
0.703322 0.701932 0.112381
0.703322 0.701932 0.112381
0.703322 0.701932 0.112381
0.000000 0.000000 -1.000000
0.000000 0.000000 -1.000000
0.000000 0.000000 -1.000000
0.000000 -0.000000 1.000000
0.000000 -0.000000 1.000000
0.000000 -0.000000 1.000000
0.703330 -0.701936 0.112307
0.703330 -0.701936 0.112307
0.703330 -0.701936 0.112307
0.703330 -0.701936 0.112307
0.703330 -0.701936 0.112307
0.703330 -0.701936 0.112307
-0.703322 -0.701932 0.112381
-0.703322 -0.701932 0.112381
-0.703322 -0.701932 0.112381
-0.703322 -0.701932 0.112381
-0.703322 -0.701932 0.112381
-0.703322 -0.701932 0.112381
-0.000000 -0.000000 -1.000000
-0.000000 -0.000000 -1.000000
-0.000000 -0.000000 -1.000000
0.000000 0.000000 1.000000
0.000000 0.000000 1.000000
0.000000 0.000000 1.000000
0.000000 0.000000 -1.000000
0.000000 0.000000 -1.000000
0.000000 0.000000 -1.000000
0.000000 0.000000 1.000000
0.000000 0.000000 1.000000
0.000000 0.000000 1.000000
-0.000000 -0.000000 -1.000000
-0.000000 -0.000000 -1.000000
-0.000000 -0.000000 -1.000000
0.000000 0.000000 1.000000
0.000000 0.000000 1.000000
0.000000 0.000000 1.000000
-0.380397 0.918196 0.110521
-0.380397 0.918196 0.110521
-0.380397 0.918195 0.110521
-0.380397 0.918196 0.110521
-0.380397 0.918196 0.110521
-0.380397 0.918196 0.110521
0.380392 0.918193 0.110561
0.380392 0.918193 0.110561
0.380392 0.918193 0.110561
0.380392 0.918193 0.110561
0.380392 0.918193 0.110561
0.380392 0.918193 0.110561
0.000000 0.000000 -1.000000
0.000000 0.000000 -1.000000
0.000000 0.000000 -1.000000
0.000000 0.000000 -1.000000
0.000000 0.000000 -1.000000
0.000000 0.000000 -1.000000
-0.000000 0.000000 -1.000000
-0.000000 0.000000 -1.000000
-0.000000 0.000000 -1.000000
-0.920021 0.379642 0.097128
-0.920021 0.379642 0.097128
-0.920021 0.379642 0.097128
-0.920021 0.379642 0.097128
-0.920021 0.379642 0.097128
-0.920021 0.379642 0.097128
-0.000000 -0.000000 1.000000
-0.000000 -0.000000 1.000000
-0.000000 -0.000000 1.000000
-0.000000 0.000000 1.000000
-0.000000 0.000000 1.000000
-0.000000 0.000000 1.000000
-0.000000 -0.000000 1.000000
-0.000000 -0.000000 1.000000
-0.000000 -0.000000 1.000000
0.920011 0.379640 0.097225
0.920011 0.379640 0.097225
0.920011 0.379640 0.097225
0.920011 0.379640 0.097225
0.920011 0.379640 0.097225
0.920011 0.379640 0.097225
0.380397 -0.918196 0.110521
0.380397 -0.918196 0.110521
0.380397 -0.918196 0.110521
0.380397 -0.918196 0.110521
0.380397 -0.918196 0.110521
0.380397 -0.918195 0.110521
-0.380392 -0.918193 0.110561
-0.380392 -0.918193 0.110561
-0.380392 -0.918193 0.110561
-0.380392 -0.918193 0.110561
-0.380392 -0.918193 0.110561
-0.380392 -0.918193 0.110561
-0.000000 -0.000000 -1.000000
-0.000000 -0.000000 -1.000000
-0.000000 -0.000000 -1.000000
-0.000000 -0.000000 -1.000000
-0.000000 -0.000000 -1.000000
-0.000000 -0.000000 -1.000000
-0.000000 -0.000000 -1.000000
-0.000000 -0.000000 -1.000000
-0.000000 -0.000000 -1.000000
0.920021 -0.379642 0.097128
0.920021 -0.379642 0.097128
0.920021 -0.379642 0.097128
0.920021 -0.379642 0.097128
0.920021 -0.379642 0.097128
0.920021 -0.379642 0.097128
0.000000 0.000000 1.000000
0.000000 0.000000 1.000000
0.000000 0.000000 1.000000
0.000000 -0.000000 1.000000
0.000000 -0.000000 1.000000
0.000000 -0.000000 1.000000
0.000000 0.000000 1.000000
0.000000 0.000000 1.000000
0.000000 0.000000 1.000000
-0.920011 -0.379640 0.097225
-0.920011 -0.379640 0.097225
-0.920011 -0.379640 0.097225
-0.920011 -0.379640 0.097225
-0.920011 -0.379640 0.097225
-0.920011 -0.379640 0.097225
</float_array>
          <technique_common>
            <accessor source="#apm400_glass.jbeam-Normal0-array" count="330" stride="3">
              <param name="X" type="float"/>
              <param name="Y" type="float"/>
              <param name="Z" type="float"/>
            </accessor>
          </technique_common>
        </source>
        <source id="apm400_glass.jbeam-UV0">
          <float_array id="apm400_glass.jbeam-UV0-array" count="128">
0.000000 0.000000
1.000000 0.000000
0.000000 1.000000
1.000000 1.000000
0.000000 0.000000
1.000000 0.000000
0.000000 1.000000
1.000000 1.000000
0.000000 0.000000
1.000000 0.000000
0.000000 1.000000
1.000000 1.000000
1.000000 0.000000
0.000000 0.000000
1.000000 1.000000
0.000000 1.000000
1.000000 0.000000
0.000000 0.000000
1.000000 1.000000
0.000000 1.000000
1.000000 0.000000
0.000000 0.000000
1.000000 1.000000
0.000000 1.000000
0.000000 0.000000
1.000000 0.000000
0.000000 1.000000
1.000000 1.000000
1.000000 0.000000
0.000000 0.000000
1.000000 1.000000
0.000000 1.000000
1.000000 0.000000
0.000000 0.000000
1.000000 1.000000
0.000000 1.000000
1.000000 0.000000
0.000000 0.000000
1.000000 1.000000
0.000000 1.000000
0.500000 0.500000
0.500000 0.500000
0.500000 0.500000
0.500000 0.500000
0.500000 0.500000
0.500000 0.500000
0.500000 0.500000
0.500000 0.500000
0.500000 0.500000
0.500000 0.500000
0.500000 0.500000
0.500000 0.500000
0.500000 0.500000
0.500000 0.500000
0.500000 0.500000
0.500000 0.500000
0.500000 0.500000
0.500000 0.500000
0.500000 0.500000
0.500000 0.500000
0.500000 0.500000
0.500000 0.500000
0.500000 0.500000
0.500000 0.500000
</float_array>
          <technique_common>
            <accessor source="#apm400_glass.jbeam-UV0-array" count="64" stride="2">
              <param name="S" type="float"/>
              <param name="T" type="float"/>
            </accessor>
          </technique_common>
        </source>
        <vertices id="apm400_glass.jbeam-VERTEX">
          <input semantic="POSITION" source="#apm400_glass.jbeam-POSITION"/>
        </vertices>
        <triangles count="110"><input semantic="VERTEX" offset="0" source="#apm400_glass.jbeam-VERTEX"/><input semantic="NORMAL" offset="1" source="#apm400_glass.jbeam-Normal0"/><input semantic="TEXCOORD" offset="2" set="0" source="#apm400_glass.jbeam-UV0"/><p> 0 0 9 2 1 11 3 2 10 3 3 10 1 4 8 0 5 9 4 6 8 5 7 9 7 8 11 7 9 11 6 10 10 4 11 8 0 12 4 1 13 5 5 14 7 5 15 7 4 16 6 0 17 4 1 18 0 3 19 1 7 20 3 7 21 3 5 22 2 1 23 0 17 24 21 48 25 20 50 26 22 50 27 22 51 28 23 17 29 21 2 30 0 0 31 1 4 32 3 4 33 3 6 34 2 2 35 0 3 36 4 2 37 5 8 38 12 8 39 12 9 40 13 3 41 4 6 42 7 7 43 6 11 44 15 11 45 15 10 46 14 6 47 7 7 48 6 3 49 4 9 50 13 9 51 13 11 52 15 7 53 6 2 54 5 6 55 7 10 56 14 10 57 14 8 58 12 2 59 5 9 60 13 8 61 12 12 62 16 12 63 16 13 64 17 9 65 13 8 66 12 10 67 14 14 68 18 14 69 18 12 70 16 8 71 12 10 72 14 11 73 15 15 74 19 15 75 19 14 76 18 10 77 14 11 78 15 9 79 13 13 80 17 13 81 17 15 82 19 11 83 15 13 84 17 12 85 16 16 86 20 48 87 20 49 88 21 13 89 17 12 90 16 14 91 18 42 92 22 42 93 22 16 94 20 12 95 16 14 96 18 15 97 19 19 98 23 51 99 23 42 100 22 14 101 18 15 102 19 13 103 17 49 104 21 49 105 21 19 106 23 15 107 19 29 108 37 52 109 36 54 110 38 54 111 38 55 112 39 29 113 37 0 114 24 1 115 25 20 116 28 20 117 28 21 118 29 0 119 24 5 120 27 4 121 26 23 122 31 23 123 31 22 124 30 5 125 27 4 126 26 0 127 24 21 128 29 21 129 29 23 130 31 4 131 26 1 132 25 5 133 27 22 134 30 22 135 30 20 136 28 1 137 25 21 138 29 20 139 28 24 140 32 24 141 32 25 142 33 21 143 29 20 144 28 22 145 30 26 146 34 26 147 34 24 148 32 20 149 28 22 150 30 23 151 31 27 152 35 27 153 35 26 154 34 22 155 30 23 156 31 21 157 29 25 158 33 25 159 33 27 160 35 23 161 31 25 162 33 24 163 32 28 164 36 52 165 36 53 166 37 25 167 33 24 168 32 26 169 34 46 170 38 46 171 38 28 172 36 24 173 32 26 174 34 27 175 35 31 176 39 55 177 39 46 178 38 26 179 34 27 180 35 25 181 33 53 182 37 53 183 37 31 184 39 27 185 35 48 186 40 41 187 21 33 188 41 51 189 42 34 190 43 18 191 22 52 192 44 45 193 37 37 194 45 55 195 46 38 196 47 30 197 38 32 198 40 40 199 20 34 200 43 18 201 22 34 202 43 40 203 20 33 204 41 41 205 21 43 206 23 35 207 42 43 208 23 41 209 21 13 210 17 40 211 20 32 212 40 14 213 18 43 214 23 35 215 42 36 216 44 44 217 36 38 218 47 30 219 38 38 220 47 44 221 36 37 222 45 45 223 37 47 224 39 39 225 46 47 226 39 45 227 37 25 228 33 44 229 36 36 230 44 26 231 34 47 232 39 39 233 46 48 234 48 17 235 21 41 236 49 51 237 50 50 238 51 34 239 22 52 240 52 29 241 37 45 242 53 55 243 54 54 244 55 38 245 38 48 246 48 32 247 20 50 248 51 34 249 22 50 250 51 32 251 20 41 252 49 17 253 21 35 254 23 51 255 50 35 256 23 17 257 21 13 258 17 16 259 20 40 260 56 48 261 48 33 262 21 49 263 57 13 264 17 32 265 20 48 266 48 40 267 56 16 268 20 18 269 22 42 270 58 18 271 22 16 272 20 14 273 18 19 274 23 43 275 59 51 276 50 18 277 22 42 278 58 14 279 18 35 280 23 51 281 50 43 282 59 19 283 23 33 284 21 49 285 57 33 286 21 19 287 23 52 288 52 36 289 36 54 290 55 38 291 38 54 292 55 36 293 36 45 294 53 29 295 37 39 296 39 55 297 54 39 298 39 29 299 37 25 300 33 28 301 36 44 302 60 52 303 52 37 304 37 53 305 61 25 306 33 36 307 36 52 308 52 44 309 60 28 310 36 30 311 38 46 312 62 30 313 38 28 314 36 26 315 34 31 316 39 47 317 63 55 318 54 30 319 38 46 320 62 26 321 34 39 322 39 55 323 54 47 324 63 31 325 39 37 326 37 53 327 61 37 328 37 31 329 39</p></triangles>
      </mesh>
    </geometry>
    <geometry id="apm400_chassis.jbeam-lib" name="apm400_chassis.jbeamMesh">
      <mesh>
        <source id="apm400_chassis.jbeam-POSITION">
          <float_array id="apm400_chassis.jbeam-POSITION-array" count="420">
-1.370042 -1.086077 -0.000000
1.370042 -1.086077 -0.000000
-1.370042 1.086077 0.000000
1.370042 1.086077 0.000000
-1.370042 3.653167 0.000000
1.370042 3.653167 0.000000
-1.354857 5.298183 0.000000
1.354995 5.298182 0.000000
-1.354857 5.972688 0.000000
0.884948 6.443664 0.000000
1.370042 -3.653167 -0.000000
-1.370041 -3.653167 -0.000000
1.354858 -5.383704 -0.000001
-1.354995 -5.383704 -0.000000
1.354858 -5.963584 -0.000000
-0.884947 -6.434563 -0.000000
-1.061963 6.370274 0.000000
1.281750 6.150188 0.000000
1.061963 -6.361172 -0.000000
-1.281749 -6.141086 -0.000000
-1.281612 6.150188 0.000000
1.062098 6.370274 0.000000
1.281612 -6.141086 -0.000000
-1.062098 -6.361173 -0.000000
-0.884813 6.443664 0.000000
1.354995 5.972688 0.000000
0.884814 -6.434563 -0.000000
-1.354995 -5.963584 -0.000000
-1.450865 -1.086077 -1.650997
1.453064 -1.086077 -1.650997
-1.450865 1.086077 -1.650996
1.453064 1.086077 -1.650996
-1.450865 3.653166 -1.650997
1.453065 3.653166 -1.650997
-1.435680 5.298181 -1.650997
1.438017 5.298181 -1.650997
-1.435680 6.125085 -1.650997
0.967970 6.596063 -1.650997
1.453065 -3.653167 -1.650998
-1.450864 -3.653167 -1.650997
1.437880 -5.383703 -1.650997
-1.435818 -5.383702 -1.650997
1.437880 -6.122021 -1.650997
-0.965770 -6.593000 -1.650997
-1.142786 6.522672 -1.650997
1.364773 6.302586 -1.650997
1.144986 -6.519608 -1.650997
-1.362572 -6.299522 -1.650997
-1.362435 6.302587 -1.650997
1.145121 6.522672 -1.650997
1.364635 -6.299523 -1.650997
-1.142921 -6.519609 -1.650997
-0.965637 6.596063 -1.650997
1.438017 6.125085 -1.650997
0.967836 -6.593001 -1.650997
-1.435817 -6.122021 -1.650997
-1.400711 -1.086077 -2.286001
1.402245 -1.086077 -2.286001
-1.400711 1.086077 -2.286000
1.402245 1.086077 -2.286001
-1.400711 3.653167 -2.286001
1.402245 3.653167 -2.286001
-1.385572 5.298183 -2.286001
1.387152 5.298183 -2.286001
-1.385572 6.125086 -2.286001
0.917106 6.596065 -2.286001
1.402245 -3.653168 -2.286001
-1.400711 -3.653168 -2.286001
1.387107 -5.383400 -2.286001
-1.385618 -5.383400 -2.286001
1.387107 -6.121718 -2.286001
-0.915572 -6.592697 -2.286001
-1.092677 6.522674 -2.286001
1.313907 6.302588 -2.286001
1.094211 -6.519305 -2.286001
-1.312373 -6.299219 -2.286001
-1.312327 6.302588 -2.286001
1.094257 6.522673 -2.286001
1.313861 -6.299220 -2.286001
-1.092722 -6.519306 -2.286001
-0.915527 6.596065 -2.286001
1.387152 6.125086 -2.286001
0.917061 -6.592697 -2.286001
-1.385618 -6.121718 -2.286001
-1.297130 -1.086077 0.152400
1.297130 -1.086077 0.152400
-1.297130 1.086077 0.152400
1.297130 1.086077 0.152400
-1.297130 3.653167 0.152400
1.297130 3.653167 0.152400
-1.275072 5.298184 0.152400
1.275085 5.298185 0.152400
-1.201827 6.130062 0.152400
1.275085 5.952559 0.152400
1.297130 -3.653167 0.152399
-1.297130 -3.653167 0.152399
1.275073 -5.383704 0.152399
-1.275084 -5.383704 0.152399
1.201827 -6.104875 0.152399
-1.275084 -5.927373 0.152399
-0.982178 6.350146 0.152400
0.982188 6.350147 0.152400
0.982179 -6.324960 0.152399
-0.982187 -6.324960 0.152399
-1.275072 5.952559 0.152400
1.201840 6.130061 0.152400
1.275073 -5.927373 0.152399
-1.201839 -6.104874 0.152399
-0.805029 6.423538 0.152400
0.805038 6.423538 0.152400
0.805029 -6.398351 0.152399
-0.805037 -6.398351 0.152399
1.401649 -1.086077 -2.590801
-1.401649 -1.086077 -2.590801
1.401649 1.086077 -2.590801
-1.401649 1.086077 -2.590801
1.401649 3.653168 -2.590801
-1.401649 3.653168 -2.590801
1.379592 5.298184 -2.590801
-1.379604 5.298183 -2.590801
1.306346 6.302587 -2.590801
-1.379604 6.125085 -2.590801
-1.401649 -3.653168 -2.590801
1.401649 -3.653168 -2.590801
-1.379592 -5.382792 -2.590800
1.379603 -5.382791 -2.590801
-1.306346 -6.302587 -2.590801
1.379603 -6.125085 -2.590801
1.086697 6.522671 -2.590801
-1.086707 6.522672 -2.590801
-1.086697 -6.522672 -2.590801
1.086706 -6.522672 -2.590801
1.379592 6.125084 -2.590801
-1.306359 6.302586 -2.590801
-1.379592 -6.125085 -2.590801
1.306358 -6.302587 -2.590801
0.909547 6.596064 -2.590801
-0.909557 6.596064 -2.590801
-0.909548 -6.596064 -2.590801
0.909556 -6.596064 -2.590801
</float_array>
          <technique_common>
            <accessor source="#apm400_chassis.jbeam-POSITION-array" count="140" stride="3">
              <param name="X" type="float"/>
              <param name="Y" type="float"/>
              <param name="Z" type="float"/>
            </accessor>
          </technique_common>
        </source>
        <source id="apm400_chassis.jbeam-Normal0">
          <float_array id="apm400_chassis.jbeam-Normal0-array" count="3456">
0.000000 -0.000000 1.000000
0.000000 -0.000000 1.000000
0.000000 -0.000000 1.000000
0.000000 -0.000000 1.000000
0.000000 -0.000000 1.000000
0.000000 -0.000000 1.000000
0.000000 0.000000 1.000000
0.000000 0.000000 1.000000
0.000000 0.000000 1.000000
0.000000 0.000000 1.000000
0.000000 0.000000 1.000000
0.000000 0.000000 1.000000
0.000000 -0.000000 1.000000
0.000000 -0.000000 1.000000
0.000000 -0.000000 1.000000
0.000000 -0.000000 1.000000
0.000000 -0.000000 1.000000
0.000000 -0.000000 1.000000
-0.000000 -0.000000 1.000000
-0.000000 -0.000000 1.000000
-0.000000 -0.000000 1.000000
-0.000000 -0.000000 1.000000
-0.000000 -0.000000 1.000000
-0.000000 -0.000000 1.000000
0.000000 -0.000000 1.000000
0.000000 -0.000000 1.000000
0.000000 -0.000000 1.000000
0.000000 -0.000000 1.000000
0.000000 -0.000000 1.000000
0.000000 -0.000000 1.000000
0.000000 -0.000000 1.000000
0.000000 -0.000000 1.000000
0.000000 -0.000000 1.000000
0.000000 -0.000000 1.000000
0.000000 -0.000000 1.000000
0.000000 -0.000000 1.000000
0.000000 0.000000 1.000000
0.000000 0.000000 1.000000
0.000000 0.000000 1.000000
0.000000 0.000000 1.000000
0.000000 0.000000 1.000000
0.000000 0.000000 1.000000
0.000000 -0.000000 1.000000
0.000000 -0.000000 1.000000
0.000000 -0.000000 1.000000
0.000000 0.000000 1.000000
0.000000 0.000000 1.000000
0.000000 0.000000 1.000000
0.000000 -0.000000 1.000000
0.000000 -0.000000 1.000000
0.000000 -0.000000 1.000000
0.000000 0.000000 1.000000
0.000000 0.000000 1.000000
0.000000 0.000000 1.000000
0.000000 -0.000000 1.000000
0.000000 -0.000000 1.000000
0.000000 -0.000000 1.000000
0.000000 0.000000 1.000000
0.000000 0.000000 1.000000
0.000000 0.000000 1.000000
0.000000 -0.000000 1.000000
0.000000 -0.000000 1.000000
0.000000 -0.000000 1.000000
-0.000000 -0.000000 1.000000
-0.000000 -0.000000 1.000000
-0.000000 -0.000000 1.000000
0.000000 -0.000000 1.000000
0.000000 -0.000000 1.000000
0.000000 -0.000000 1.000000
0.000000 0.000000 1.000000
0.000000 0.000000 1.000000
0.000000 0.000000 1.000000
0.000000 0.000000 1.000000
0.000000 0.000000 1.000000
0.000000 0.000000 1.000000
0.000000 0.000000 1.000000
0.000000 0.000000 1.000000
0.000000 0.000000 1.000000
-0.000000 0.000000 -1.000000
-0.000000 0.000000 -1.000000
-0.000000 0.000000 -1.000000
-0.000000 0.000000 -1.000000
-0.000000 0.000000 -1.000000
-0.000000 0.000000 -1.000000
-0.000000 -0.000000 -1.000000
-0.000000 -0.000000 -1.000000
-0.000000 -0.000000 -1.000000
-0.000000 -0.000000 -1.000000
-0.000000 -0.000000 -1.000000
-0.000000 -0.000000 -1.000000
-0.000000 0.000000 -1.000000
-0.000000 0.000000 -1.000000
-0.000000 0.000000 -1.000000
-0.000000 -0.000000 -1.000000
-0.000000 -0.000000 -1.000000
-0.000000 -0.000000 -1.000000
-0.000000 0.000000 -1.000000
-0.000000 0.000000 -1.000000
-0.000000 0.000000 -1.000000
-0.000000 0.000000 -1.000000
-0.000000 0.000000 -1.000000
-0.000000 0.000000 -1.000000
-0.000000 0.000000 -1.000000
-0.000000 0.000000 -1.000000
-0.000000 0.000000 -1.000000
-0.000000 0.000000 -1.000000
-0.000000 0.000000 -1.000000
-0.000000 0.000000 -1.000000
-0.000000 -0.000000 -1.000000
-0.000000 -0.000000 -1.000000
-0.000000 -0.000000 -1.000000
-0.000000 -0.000000 -1.000000
-0.000000 -0.000000 -1.000000
-0.000000 -0.000000 -1.000000
-0.000000 0.000000 -1.000000
-0.000000 0.000000 -1.000000
-0.000000 0.000000 -1.000000
-0.000000 0.000000 -1.000000
-0.000000 0.000000 -1.000000
-0.000000 0.000000 -1.000000
0.000000 0.000000 -1.000000
0.000000 0.000000 -1.000000
0.000000 0.000000 -1.000000
0.000000 0.000000 -1.000000
0.000000 0.000000 -1.000000
0.000000 0.000000 -1.000000
-0.000000 0.000000 -1.000000
-0.000000 0.000000 -1.000000
-0.000000 0.000000 -1.000000
-0.000000 0.000000 -1.000000
-0.000000 0.000000 -1.000000
-0.000000 0.000000 -1.000000
0.000000 0.000000 -1.000000
0.000000 0.000000 -1.000000
0.000000 0.000000 -1.000000
0.000000 0.000000 -1.000000
0.000000 0.000000 -1.000000
0.000000 0.000000 -1.000000
-0.000000 0.000000 -1.000000
-0.000000 0.000000 -1.000000
-0.000000 0.000000 -1.000000
0.000000 0.000001 -1.000000
0.000000 0.000001 -1.000000
0.000000 0.000001 -1.000000
-0.000000 0.000000 -1.000000
-0.000000 0.000000 -1.000000
-0.000000 0.000000 -1.000000
0.000000 0.000001 -1.000000
0.000000 0.000001 -1.000000
0.000000 0.000001 -1.000000
0.000000 0.000001 -1.000000
0.000000 0.000001 -1.000000
0.000000 0.000001 -1.000000
-0.000001 -0.000001 -1.000000
-0.000001 -0.000001 -1.000000
-0.000001 -0.000001 -1.000000
-0.998804 -0.000000 0.048895
-0.998804 -0.000000 0.048895
-0.998804 -0.000000 0.048895
-0.998804 -0.000000 0.048895
-0.998804 -0.000000 0.048895
-0.998804 -0.000000 0.048895
0.998738 -0.000000 0.050223
0.998738 -0.000000 0.050223
0.998738 -0.000000 0.050223
0.998738 0.000000 0.050223
0.998738 0.000000 0.050223
0.998738 0.000000 0.050223
-0.998804 0.000000 0.048895
-0.998804 0.000000 0.048895
-0.998804 0.000000 0.048895
-0.998804 0.000000 0.048895
-0.998804 0.000000 0.048895
-0.998804 0.000000 0.048895
0.998738 0.000000 0.050223
0.998738 0.000000 0.050223
0.998738 0.000000 0.050223
0.998738 -0.000000 0.050223
0.998738 -0.000000 0.050223
0.998738 -0.000000 0.050223
-0.998761 0.009219 0.048893
-0.998762 0.009219 0.048893
-0.998761 0.009219 0.048893
-0.998761 0.009219 0.048893
-0.998761 0.009219 0.048893
-0.998761 0.009219 0.048893
0.998696 0.009135 0.050221
0.998696 0.009135 0.050221
0.998696 0.009135 0.050221
0.998696 0.009135 0.050221
0.998696 0.009135 0.050221
0.998696 0.009135 0.050221
-0.998804 -0.000000 0.048895
-0.998804 -0.000000 0.048895
-0.998804 -0.000000 0.048895
-0.998804 -0.000000 0.048895
-0.998804 -0.000000 0.048895
-0.998804 -0.000000 0.048895
0.998738 -0.000000 0.050223
0.998738 -0.000000 0.050223
0.998738 -0.000000 0.050223
0.998738 -0.000000 0.050223
0.998738 -0.000000 0.050223
0.998738 -0.000000 0.050223
0.998738 0.000000 0.050223
0.998738 0.000000 0.050223
0.998738 0.000000 0.050223
0.998738 0.000000 0.050223
0.998738 0.000000 0.050223
0.998738 0.000000 0.050223
-0.998804 -0.000000 0.048895
-0.998804 -0.000000 0.048895
-0.998804 -0.000000 0.048895
-0.998804 -0.000000 0.048895
-0.998804 -0.000000 0.048895
-0.998804 -0.000000 0.048895
0.998700 -0.008763 0.050221
0.998700 -0.008763 0.050221
0.998700 -0.008763 0.050221
0.998700 -0.008763 0.050221
0.998700 -0.008763 0.050221
0.998700 -0.008763 0.050221
-0.998766 -0.008684 0.048894
-0.998766 -0.008684 0.048894
-0.998766 -0.008684 0.048894
-0.998766 -0.008684 0.048894
-0.998766 -0.008684 0.048894
-0.998766 -0.008684 0.048894
0.998738 0.000000 0.050223
0.998738 0.000000 0.050223
0.998738 0.000000 0.050223
0.998738 0.000000 0.050223
0.998738 0.000000 0.050223
0.998738 0.000000 0.050223
-0.998804 -0.000000 0.048895
-0.998804 -0.000000 0.048895
-0.998804 -0.000000 0.048895
-0.998804 -0.000000 0.048895
-0.998804 -0.000000 0.048895
-0.998804 -0.000000 0.048895
0.704238 0.702845 0.100291
0.704238 0.702845 0.100291
0.704238 0.702845 0.100291
0.704237 0.702846 0.100291
0.704237 0.702846 0.100291
0.704237 0.702845 0.100291
-0.704121 -0.702729 0.101906
-0.704122 -0.702729 0.101906
-0.704122 -0.702729 0.101906
-0.704123 -0.702727 0.101906
-0.704123 -0.702727 0.101906
-0.704123 -0.702727 0.101906
-0.704306 0.702909 0.099362
-0.704306 0.702909 0.099362
-0.704306 0.702909 0.099362
-0.704303 0.702911 0.099362
-0.704303 0.702911 0.099362
-0.704303 0.702911 0.099362
0.704056 -0.702659 0.102834
0.704056 -0.702659 0.102834
0.704056 -0.702659 0.102834
0.704055 -0.702660 0.102834
0.704055 -0.702660 0.102834
0.704055 -0.702660 0.102834
0.000000 0.995767 0.091916
0.000000 0.995767 0.091916
0.000000 0.995767 0.091916
0.000000 0.995767 0.091916
0.000000 0.995767 0.091916
0.000000 0.995767 0.091916
0.380662 0.918852 0.103958
0.380662 0.918852 0.103958
0.380662 0.918852 0.103958
0.380665 0.918851 0.103959
0.380665 0.918851 0.103959
0.380665 0.918851 0.103959
0.000000 -0.995427 0.095526
0.000000 -0.995427 0.095526
0.000000 -0.995427 0.095526
-0.000000 -0.995427 0.095526
-0.000000 -0.995427 0.095526
-0.000000 -0.995427 0.095526
-0.380547 -0.918576 0.106780
-0.380547 -0.918576 0.106780
-0.380547 -0.918576 0.106780
-0.380552 -0.918574 0.106780
-0.380552 -0.918574 0.106780
-0.380552 -0.918574 0.106780
-0.921413 0.380218 0.080204
-0.921413 0.380218 0.080204
-0.921413 0.380218 0.080204
-0.921414 0.380214 0.080203
-0.921414 0.380214 0.080203
-0.921414 0.380214 0.080203
0.921321 0.380181 0.081423
0.921321 0.380181 0.081423
0.921321 0.380181 0.081423
0.921323 0.380177 0.081423
0.921323 0.380177 0.081423
0.921323 0.380177 0.081423
-0.380686 0.918899 0.103457
-0.380686 0.918899 0.103457
-0.380686 0.918899 0.103457
-0.380691 0.918897 0.103457
-0.380691 0.918897 0.103457
-0.380691 0.918897 0.103457
0.921217 -0.380135 0.082804
0.921217 -0.380135 0.082804
0.921217 -0.380135 0.082804
0.921216 -0.380137 0.082804
0.921216 -0.380137 0.082804
0.921216 -0.380137 0.082804
-0.921310 -0.380174 0.081585
-0.921310 -0.380174 0.081585
-0.921310 -0.380174 0.081585
-0.921309 -0.380177 0.081585
-0.921309 -0.380177 0.081585
-0.921309 -0.380177 0.081585
0.380533 -0.918523 0.107282
0.380533 -0.918523 0.107282
0.380533 -0.918523 0.107282
0.380541 -0.918520 0.107281
0.380541 -0.918520 0.107281
0.380541 -0.918520 0.107281
-0.996895 0.000000 -0.078737
-0.996895 0.000000 -0.078737
-0.996895 0.000000 -0.078737
-0.996895 0.000000 -0.078737
-0.996895 0.000000 -0.078737
-0.996895 0.000000 -0.078737
0.996813 0.000000 -0.079775
0.996813 0.000000 -0.079775
0.996813 0.000000 -0.079775
0.996813 0.000000 -0.079775
0.996813 0.000000 -0.079775
0.996813 0.000000 -0.079775
-0.996895 -0.000000 -0.078737
-0.996895 -0.000000 -0.078737
-0.996895 -0.000000 -0.078737
-0.996895 -0.000000 -0.078737
-0.996895 -0.000000 -0.078737
-0.996895 -0.000000 -0.078737
0.996813 -0.000000 -0.079775
0.996813 -0.000000 -0.079775
0.996813 -0.000000 -0.079775
0.996813 -0.000000 -0.079775
0.996813 -0.000000 -0.079775
0.996813 -0.000000 -0.079775
-0.996859 0.009202 -0.078661
-0.996859 0.009202 -0.078661
-0.996859 0.009202 -0.078661
-0.996854 0.009174 -0.078733
-0.996854 0.009174 -0.078733
-0.996854 0.009174 -0.078733
0.996771 0.009118 -0.079772
0.996771 0.009118 -0.079772
0.996771 0.009118 -0.079772
0.996765 0.009145 -0.079843
0.996766 0.009145 -0.079843
0.996765 0.009145 -0.079843
-0.996901 -0.000000 -0.078665
-0.996901 -0.000000 -0.078665
-0.996901 -0.000000 -0.078665
-0.996901 0.000000 -0.078665
-0.996901 0.000000 -0.078665
-0.996901 0.000000 -0.078665
0.996807 -0.000000 -0.079846
0.996807 -0.000000 -0.079846
0.996807 -0.000000 -0.079846
0.996807 -0.000000 -0.079847
0.996807 -0.000000 -0.079847
0.996807 -0.000000 -0.079847
0.996813 0.000000 -0.079776
0.996813 0.000000 -0.079776
0.996813 0.000000 -0.079776
0.996813 0.000000 -0.079775
0.996813 0.000000 -0.079775
0.996813 0.000000 -0.079775
-0.996895 -0.000000 -0.078737
-0.996895 -0.000000 -0.078737
-0.996895 -0.000000 -0.078737
-0.996895 0.000000 -0.078737
-0.996895 0.000000 -0.078737
-0.996895 0.000000 -0.078737
0.996780 -0.008746 -0.079705
0.996780 -0.008746 -0.079705
0.996780 -0.008746 -0.079705
0.996775 -0.008721 -0.079773
0.996775 -0.008721 -0.079773
0.996775 -0.008721 -0.079773
-0.996858 -0.008668 -0.078734
-0.996858 -0.008668 -0.078734
-0.996858 -0.008668 -0.078734
-0.996852 -0.008695 -0.078809
-0.996852 -0.008695 -0.078809
-0.996852 -0.008695 -0.078809
0.996819 0.000000 -0.079704
0.996819 0.000000 -0.079704
0.996819 0.000000 -0.079704
0.996819 0.000000 -0.079704
0.996818 0.000000 -0.079704
0.996819 0.000000 -0.079704
-0.996890 -0.000000 -0.078808
-0.996890 -0.000000 -0.078808
-0.996890 -0.000000 -0.078808
-0.996890 0.000000 -0.078808
-0.996890 0.000000 -0.078808
-0.996890 0.000000 -0.078808
0.706671 0.705275 -0.056604
0.706671 0.705275 -0.056604
0.706671 0.705275 -0.056604
0.706670 0.705275 -0.056604
0.706670 0.705275 -0.056604
0.706671 0.705275 -0.056604
-0.706689 -0.705288 -0.056202
-0.706689 -0.705288 -0.056202
-0.706689 -0.705288 -0.056202
-0.706689 -0.705289 -0.056202
-0.706689 -0.705289 -0.056202
-0.706689 -0.705289 -0.056202
-0.706705 0.705308 -0.055764
-0.706705 0.705308 -0.055764
-0.706705 0.705307 -0.055764
-0.706705 0.705307 -0.055765
-0.706705 0.705307 -0.055765
-0.706705 0.705307 -0.055765
0.706663 -0.705263 -0.056841
0.706663 -0.705263 -0.056841
0.706663 -0.705263 -0.056841
0.706662 -0.705264 -0.056840
0.706662 -0.705264 -0.056840
0.706662 -0.705264 -0.056840
0.000000 1.000000 0.000002
0.000000 1.000000 0.000002
0.000000 1.000000 0.000002
0.000000 1.000000 0.000002
0.000000 1.000000 0.000002
0.000000 1.000000 0.000002
0.382559 0.923423 -0.030642
0.382559 0.923423 -0.030642
0.382559 0.923423 -0.030642
0.382562 0.923422 -0.030641
0.382562 0.923421 -0.030641
0.382562 0.923422 -0.030641
-0.000000 -1.000000 -0.000477
-0.000000 -1.000000 -0.000477
-0.000000 -1.000000 -0.000477
0.000000 -1.000000 -0.000478
0.000000 -1.000000 -0.000478
0.000000 -1.000000 -0.000478
-0.382560 -0.923421 -0.030684
-0.382560 -0.923421 -0.030684
-0.382560 -0.923421 -0.030684
-0.382562 -0.923420 -0.030683
-0.382562 -0.923420 -0.030683
-0.382562 -0.923420 -0.030683
-0.921943 0.380433 -0.072749
-0.921943 0.380433 -0.072749
-0.921943 0.380433 -0.072749
-0.921943 0.380433 -0.072749
-0.921943 0.380433 -0.072749
-0.921943 0.380433 -0.072749
0.921868 0.380402 -0.073843
0.921868 0.380402 -0.073843
0.921868 0.380402 -0.073843
0.921869 0.380401 -0.073843
0.921869 0.380401 -0.073843
0.921869 0.380401 -0.073843
-0.382570 0.923433 -0.030187
-0.382570 0.923433 -0.030187
-0.382570 0.923433 -0.030187
-0.382567 0.923435 -0.030186
-0.382567 0.923434 -0.030186
-0.382567 0.923434 -0.030186
0.921864 -0.380404 -0.073892
0.921864 -0.380404 -0.073892
0.921864 -0.380404 -0.073892
0.921864 -0.380403 -0.073892
0.921864 -0.380403 -0.073892
0.921864 -0.380403 -0.073892
-0.921920 -0.380429 -0.073063
-0.921920 -0.380429 -0.073063
-0.921920 -0.380429 -0.073063
-0.921920 -0.380427 -0.073062
-0.921920 -0.380427 -0.073062
-0.921920 -0.380427 -0.073062
0.382566 -0.923407 -0.031031
0.382566 -0.923407 -0.031031
0.382566 -0.923407 -0.031031
0.382561 -0.923409 -0.031029
0.382561 -0.923409 -0.031029
0.382561 -0.923409 -0.031029
0.000000 -0.000000 1.000000
0.000000 -0.000000 1.000000
0.000000 -0.000000 1.000000
0.000000 -0.000000 1.000000
0.000000 -0.000000 1.000000
0.000000 -0.000000 1.000000
0.000000 0.000000 1.000000
0.000000 0.000000 1.000000
0.000000 0.000000 1.000000
0.000000 0.000000 1.000000
0.000000 0.000000 1.000000
0.000000 0.000000 1.000000
-0.000000 -1.000000 -0.000001
-0.000000 -1.000000 -0.000001
-0.000000 -1.000000 -0.000001
-0.000000 -1.000000 -0.000001
0.000000 -1.000000 -0.000001
-0.000000 -1.000000 -0.000001
0.902077 0.000000 0.431575
0.902077 -0.000000 0.431576
0.902077 -0.000000 0.431576
0.902077 -0.000000 0.431576
0.902077 0.000000 0.431575
0.902077 0.000000 0.431575
0.000000 0.991392 0.130929
0.000000 0.991392 0.130929
0.000000 0.991392 0.130929
0.000000 0.991392 0.130929
0.000000 0.991392 0.130929
0.000000 0.991392 0.130929
-0.902077 -0.000000 0.431575
-0.902077 -0.000000 0.431574
-0.902077 -0.000000 0.431574
-0.902077 -0.000000 0.431574
-0.902077 0.000000 0.431575
-0.902077 -0.000000 0.431575
0.000000 0.000000 1.000000
0.000000 0.000000 1.000000
0.000000 0.000000 1.000000
0.000000 0.000000 1.000000
0.000000 0.000000 1.000000
0.000000 0.000000 1.000000
0.000000 0.000000 1.000000
0.000000 0.000000 1.000000
0.000000 0.000000 1.000000
0.000000 0.000000 1.000000
0.000000 0.000000 1.000000
0.000000 0.000000 1.000000
0.902077 0.000000 0.431576
0.902077 0.000000 0.431576
0.902077 0.000000 0.431576
0.902077 0.000000 0.431576
0.902077 0.000000 0.431576
0.902077 0.000000 0.431576
-0.902077 0.000000 0.431575
-0.902077 0.000000 0.431575
-0.902077 0.000000 0.431574
-0.902077 0.000000 0.431575
-0.902077 0.000000 0.431574
-0.902077 0.000000 0.431575
0.000000 -0.000000 1.000000
0.000000 -0.000000 1.000000
0.000000 -0.000000 1.000000
0.000000 -0.000000 1.000000
0.000000 -0.000000 1.000000
0.000000 -0.000000 1.000000
-0.902011 0.012095 0.431543
-0.902011 0.012095 0.431543
-0.902011 0.012095 0.431543
-0.885906 0.008178 0.463792
-0.885906 0.008178 0.463792
-0.885906 0.008178 0.463792
0.000000 -0.000000 1.000000
0.000000 -0.000000 1.000000
0.000000 -0.000000 1.000000
0.000000 -0.000000 1.000000
0.000000 -0.000000 1.000000
0.000000 -0.000000 1.000000
0.902046 0.008251 0.431561
0.902046 0.008251 0.431561
0.902046 0.008251 0.431561
0.885574 0.011868 0.464348
0.885574 0.011868 0.464348
0.885574 0.011868 0.464348
-0.000000 -0.000000 1.000000
-0.000000 -0.000000 1.000000
-0.000000 -0.000000 1.000000
-0.000000 -0.000000 1.000000
-0.000000 -0.000000 1.000000
-0.000000 -0.000000 1.000000
-0.885936 0.000000 0.463808
-0.885936 0.000000 0.463808
-0.885936 0.000000 0.463808
-0.885935 -0.000000 0.463809
-0.885935 -0.000000 0.463809
-0.885935 -0.000000 0.463809
0.000000 -0.000000 1.000000
0.000000 -0.000000 1.000000
0.000000 -0.000000 1.000000
-0.000000 -0.000000 1.000000
-0.000000 -0.000000 1.000000
-0.000000 -0.000000 1.000000
0.885636 -0.000000 0.464380
0.885636 -0.000000 0.464380
0.885636 -0.000000 0.464380
0.885636 -0.000000 0.464380
0.885636 -0.000000 0.464380
0.885636 -0.000000 0.464380
0.000000 -0.972912 0.231175
0.000000 -0.972912 0.231175
0.000000 -0.972912 0.231175
0.000000 -0.972912 0.231175
0.000000 -0.972912 0.231175
0.000000 -0.972912 0.231175
0.000000 -0.000000 1.000000
0.000000 -0.000000 1.000000
0.000000 -0.000000 1.000000
0.000000 -0.000000 1.000000
0.000000 -0.000000 1.000000
0.000000 -0.000000 1.000000
0.000000 -0.000000 1.000000
0.000000 -0.000000 1.000000
0.000000 -0.000000 1.000000
0.000000 -0.000000 1.000000
0.000000 -0.000000 1.000000
0.000000 -0.000000 1.000000
-0.902077 -0.000000 0.431575
-0.902077 -0.000000 0.431575
-0.902077 -0.000000 0.431575
-0.902077 -0.000000 0.431574
-0.902077 -0.000000 0.431574
-0.902077 -0.000000 0.431574
0.902077 0.000000 0.431575
0.902077 0.000000 0.431575
0.902077 0.000000 0.431575
0.902077 0.000000 0.431575
0.902077 0.000000 0.431575
0.902077 0.000000 0.431575
0.000000 -0.000000 1.000000
0.000000 -0.000000 1.000000
0.000000 -0.000000 1.000000
0.000000 -0.000000 1.000000
0.000000 -0.000000 1.000000
0.000000 -0.000000 1.000000
0.902017 -0.011497 0.431546
0.902017 -0.011497 0.431546
0.902017 -0.011497 0.431546
0.885908 -0.007773 0.463795
0.885908 -0.007773 0.463795
0.885908 -0.007773 0.463795
0.000000 -0.000000 1.000000
0.000000 -0.000000 1.000000
0.000000 -0.000000 1.000000
0.000000 -0.000000 1.000000
0.000000 -0.000000 1.000000
0.000000 -0.000000 1.000000
-0.902050 -0.007843 0.431561
-0.902050 -0.007843 0.431561
-0.902050 -0.007843 0.431561
-0.885579 -0.011282 0.464352
-0.885579 -0.011282 0.464352
-0.885579 -0.011282 0.464352
0.000000 0.000000 1.000000
0.000000 0.000000 1.000000
0.000000 0.000000 1.000000
0.000000 0.000000 1.000000
0.000000 0.000000 1.000000
0.000000 0.000000 1.000000
0.885935 -0.000000 0.463809
0.885935 -0.000000 0.463809
0.885935 -0.000000 0.463809
0.885935 0.000000 0.463809
0.885935 0.000000 0.463809
0.885935 0.000000 0.463809
0.000000 -0.000000 1.000000
0.000000 -0.000000 1.000000
0.000000 -0.000000 1.000000
0.000000 -0.000000 1.000000
0.000000 -0.000000 1.000000
0.000000 -0.000000 1.000000
-0.885635 -0.000000 0.464381
-0.885635 -0.000000 0.464381
-0.885635 -0.000000 0.464381
-0.885635 -0.000000 0.464382
-0.885635 -0.000000 0.464382
-0.885635 -0.000000 0.464382
0.000000 -0.000000 1.000000
0.000000 -0.000000 1.000000
0.000000 -0.000000 1.000000
0.000000 -0.000001 1.000000
0.000000 -0.000001 1.000000
0.000000 -0.000001 1.000000
0.000000 0.000000 1.000000
0.000000 0.000000 1.000000
0.000000 0.000000 1.000000
-0.000000 0.000001 1.000000
-0.000000 0.000001 1.000000
-0.000000 0.000001 1.000000
-0.642095 0.640822 0.420786
-0.642095 0.640822 0.420786
-0.642095 0.640822 0.420786
-0.642095 0.640825 0.420782
-0.642095 0.640825 0.420782
-0.642095 0.640825 0.420782
0.641952 0.640682 0.421218
0.641952 0.640682 0.421218
0.641952 0.640682 0.421218
0.641949 0.640683 0.421221
0.641949 0.640682 0.421221
0.641949 0.640682 0.421221
0.000000 -0.000000 1.000000
0.000000 -0.000000 1.000000
0.000000 -0.000000 1.000000
0.000000 -0.000000 1.000000
0.000000 -0.000000 1.000000
0.000000 -0.000000 1.000000
0.623219 -0.621983 0.474062
0.623219 -0.621983 0.474062
0.623219 -0.621983 0.474062
0.623219 -0.621986 0.474058
0.623219 -0.621986 0.474058
0.623219 -0.621986 0.474058
-0.623067 -0.621834 0.474458
-0.623067 -0.621834 0.474458
-0.623067 -0.621834 0.474458
-0.623063 -0.621835 0.474461
-0.623063 -0.621835 0.474461
-0.623064 -0.621835 0.474461
0.000000 0.000000 1.000000
0.000000 0.000000 1.000000
0.000000 0.000000 1.000000
0.000000 0.000000 1.000000
0.000000 0.000000 1.000000
0.000000 0.000000 1.000000
0.000000 -0.000000 1.000000
0.000000 -0.000000 1.000000
0.000000 -0.000000 1.000000
0.000000 0.000000 1.000000
0.000000 0.000000 1.000000
0.000000 0.000000 1.000000
0.000000 0.000000 1.000000
0.000000 0.000000 1.000000
0.000000 0.000000 1.000000
0.000000 0.000000 1.000000
0.000000 0.000000 1.000000
0.000000 0.000000 1.000000
-0.364278 0.879292 0.306833
-0.364278 0.879292 0.306833
-0.364278 0.879292 0.306833
-0.364281 0.879289 0.306839
-0.364281 0.879289 0.306839
-0.364281 0.879289 0.306839
0.364240 0.879212 0.307108
0.364240 0.879212 0.307108
0.364240 0.879212 0.307108
0.364245 0.879212 0.307104
0.364245 0.879211 0.307104
0.364245 0.879211 0.307104
0.000000 -0.000000 1.000000
0.000000 -0.000000 1.000000
0.000000 -0.000000 1.000000
-0.000000 -0.000000 1.000000
-0.000000 -0.000000 1.000000
-0.000000 -0.000000 1.000000
0.000000 -0.000000 1.000000
0.000000 -0.000000 1.000000
0.000000 -0.000000 1.000000
-0.815306 0.336434 0.471263
-0.815306 0.336434 0.471263
-0.815306 0.336434 0.471263
-0.815305 0.336430 0.471266
-0.815305 0.336430 0.471266
-0.815305 0.336430 0.471266
-0.000000 -0.000000 1.000000
-0.000000 -0.000000 1.000000
-0.000000 -0.000000 1.000000
-0.000000 0.000000 1.000000
-0.000000 0.000000 1.000000
-0.000000 0.000000 1.000000
-0.000000 -0.000000 1.000000
-0.000000 -0.000000 1.000000
-0.000000 -0.000000 1.000000
0.815048 0.336325 0.471785
0.815049 0.336325 0.471785
0.815048 0.336325 0.471785
0.815046 0.336327 0.471788
0.815047 0.336327 0.471788
0.815046 0.336327 0.471787
0.352895 -0.851811 0.387148
0.352895 -0.851811 0.387148
0.352895 -0.851811 0.387148
0.352896 -0.851808 0.387152
0.352897 -0.851808 0.387152
0.352897 -0.851808 0.387152
-0.352849 -0.851716 0.387398
-0.352849 -0.851716 0.387398
-0.352849 -0.851716 0.387398
-0.352854 -0.851716 0.387395
-0.352854 -0.851716 0.387395
-0.352854 -0.851716 0.387395
0.000000 0.000000 1.000000
0.000000 0.000000 1.000000
0.000000 0.000000 1.000000
0.000000 0.000000 1.000000
0.000000 0.000000 1.000000
0.000000 0.000000 1.000000
0.000000 0.000000 1.000000
0.000000 0.000000 1.000000
0.000000 0.000000 1.000000
0.801508 -0.330738 0.498195
0.801508 -0.330738 0.498195
0.801508 -0.330738 0.498195
0.801508 -0.330738 0.498194
0.801508 -0.330738 0.498195
0.801508 -0.330738 0.498194
0.000000 0.000000 1.000000
0.000000 0.000000 1.000000
0.000000 0.000000 1.000000
0.000000 -0.000000 1.000000
0.000000 -0.000000 1.000000
0.000000 -0.000000 1.000000
0.000000 0.000000 1.000000
0.000000 0.000000 1.000000
0.000000 0.000000 1.000000
-0.801244 -0.330629 0.498691
-0.801244 -0.330629 0.498691
-0.801244 -0.330629 0.498691
-0.801244 -0.330629 0.498690
-0.801244 -0.330629 0.498690
-0.801244 -0.330629 0.498690
-0.000000 0.000000 -1.000000
-0.000000 0.000000 -1.000000
-0.000000 0.000000 -1.000000
-0.000000 0.000000 -1.000000
-0.000000 0.000000 -1.000000
-0.000000 0.000000 -1.000000
-0.000000 0.000000 -1.000000
-0.000000 0.000000 -1.000000
-0.000000 0.000000 -1.000000
-0.000000 0.000000 -1.000000
-0.000000 0.000000 -1.000000
-0.000000 0.000000 -1.000000
-0.000000 -1.000000 0.000001
-0.000000 -1.000000 0.000002
-0.000000 -1.000000 0.000001
-0.000000 -1.000000 0.000001
-0.000000 -1.000000 0.000001
-0.000000 -1.000000 0.000001
-0.999995 0.000000 0.003077
-0.999995 -0.000000 0.003077
-0.999995 0.000000 0.003077
-0.999995 0.000000 0.003077
-0.999995 0.000000 0.003077
-0.999995 0.000000 0.003077
-0.000000 1.000000 -0.000003
0.000000 1.000000 -0.000003
-0.000000 1.000000 -0.000003
-0.000000 1.000000 -0.000003
-0.000000 1.000000 -0.000003
-0.000000 1.000000 -0.000003
0.999998 0.000000 -0.001954
0.999998 0.000000 -0.001954
0.999998 0.000000 -0.001954
0.999998 0.000000 -0.001954
0.999998 0.000000 -0.001954
0.999998 0.000000 -0.001954
-0.000000 -0.000000 -1.000000
-0.000000 -0.000000 -1.000000
-0.000000 -0.000000 -1.000000
-0.000000 -0.000000 -1.000000
-0.000000 -0.000000 -1.000000
-0.000000 -0.000000 -1.000000
-0.000000 0.000000 -1.000000
-0.000000 0.000000 -1.000000
-0.000000 0.000000 -1.000000
-0.000000 0.000000 -1.000000
-0.000000 0.000000 -1.000000
-0.000000 0.000000 -1.000000
-0.999995 0.000000 0.003077
-0.999995 0.000000 0.003077
-0.999995 0.000000 0.003077
-0.999995 0.000000 0.003077
-0.999995 0.000000 0.003077
-0.999995 0.000000 0.003077
0.999998 0.000000 -0.001954
0.999998 0.000000 -0.001954
0.999998 0.000000 -0.001954
0.999998 -0.000000 -0.001955
0.999998 -0.000000 -0.001955
0.999998 -0.000000 -0.001955
-0.000000 -0.000000 -1.000000
-0.000000 -0.000000 -1.000000
-0.000000 -0.000000 -1.000000
-0.000000 0.000000 -1.000000
-0.000000 0.000000 -1.000000
-0.000000 0.000000 -1.000000
0.999908 0.013408 -0.001955
0.999908 0.013408 -0.001955
0.999908 0.013408 -0.001955
0.999651 0.009172 -0.024796
0.999650 0.009172 -0.024796
0.999650 0.009172 -0.024796
-0.000000 0.000000 -1.000000
-0.000000 0.000000 -1.000000
-0.000000 0.000000 -1.000000
-0.000000 -0.000000 -1.000000
-0.000000 -0.000000 -1.000000
-0.000000 -0.000000 -1.000000
-0.999953 0.009202 0.003077
-0.999953 0.009202 0.003077
-0.999953 0.009202 0.003077
-0.999719 0.013397 -0.019576
-0.999719 0.013397 -0.019576
-0.999719 0.013397 -0.019576
-0.000000 0.000000 -1.000000
-0.000000 0.000000 -1.000000
-0.000000 0.000000 -1.000000
0.000000 0.000000 -1.000000
0.000000 0.000000 -1.000000
0.000000 0.000000 -1.000000
0.999693 -0.000000 -0.024797
0.999693 -0.000000 -0.024797
0.999692 -0.000000 -0.024797
0.999692 -0.000000 -0.024797
0.999692 -0.000000 -0.024797
0.999692 -0.000000 -0.024797
-0.000000 -0.000000 -1.000000
-0.000000 -0.000000 -1.000000
-0.000000 -0.000000 -1.000000
-0.000000 -0.000000 -1.000000
-0.000000 -0.000000 -1.000000
-0.000000 -0.000000 -1.000000
-0.999808 0.000000 -0.019578
-0.999808 0.000000 -0.019578
-0.999808 0.000000 -0.019578
-0.999808 -0.000000 -0.019577
-0.999808 -0.000000 -0.019577
-0.999808 -0.000000 -0.019577
0.000000 -0.999939 0.011044
0.000000 -0.999939 0.011044
0.000000 -0.999939 0.011044
0.000000 -0.999939 0.011044
0.000000 -0.999939 0.011044
0.000000 -0.999939 0.011044
-0.000000 0.000000 -1.000000
-0.000000 0.000000 -1.000000
-0.000000 0.000000 -1.000000
-0.000000 0.000000 -1.000000
-0.000000 0.000000 -1.000000
-0.000000 0.000000 -1.000000
-0.000000 -0.000000 -1.000000
-0.000000 -0.000000 -1.000000
-0.000000 -0.000000 -1.000000
-0.000000 -0.000000 -1.000000
-0.000000 -0.000000 -1.000000
-0.000000 -0.000000 -1.000000
0.999998 0.000000 -0.001954
0.999998 0.000000 -0.001954
0.999998 0.000000 -0.001954
0.999998 -0.000000 -0.001955
0.999998 -0.000000 -0.001955
0.999998 -0.000000 -0.001955
-0.999995 0.000000 0.003077
-0.999995 0.000000 0.003077
-0.999995 0.000000 0.003077
-0.999995 -0.000000 0.003078
-0.999995 -0.000000 0.003078
-0.999995 -0.000000 0.003078
-0.000000 -0.000000 -1.000000
-0.000000 -0.000000 -1.000000
-0.000000 -0.000000 -1.000000
-0.000000 -0.000000 -1.000000
-0.000000 -0.000000 -1.000000
-0.000000 -0.000000 -1.000000
-0.999914 -0.012751 0.003078
-0.999914 -0.012751 0.003078
-0.999914 -0.012751 0.003078
-0.999766 -0.008721 -0.019784
-0.999766 -0.008721 -0.019784
-0.999766 -0.008721 -0.019784
-0.000000 0.000000 -1.000000
-0.000000 0.000000 -1.000000
-0.000000 0.000000 -1.000000
-0.000000 -0.000000 -1.000000
-0.000000 -0.000000 -1.000000
-0.000000 -0.000000 -1.000000
0.999960 -0.008749 -0.001955
0.999960 -0.008749 -0.001955
0.999960 -0.008749 -0.001955
0.999615 -0.012741 -0.024632
0.999615 -0.012741 -0.024632
0.999615 -0.012741 -0.024632
-0.000000 0.000000 -1.000000
-0.000000 0.000000 -1.000000
-0.000000 0.000000 -1.000000
0.000000 0.000000 -1.000000
0.000000 0.000000 -1.000000
0.000000 0.000000 -1.000000
-0.999805 0.000000 -0.019767
-0.999805 0.000000 -0.019767
-0.999805 0.000000 -0.019767
-0.999805 0.000000 -0.019766
-0.999805 0.000000 -0.019766
-0.999805 0.000000 -0.019766
-0.000000 0.000000 -1.000000
-0.000000 0.000000 -1.000000
-0.000000 0.000000 -1.000000
-0.000000 0.000000 -1.000000
-0.000000 0.000000 -1.000000
-0.000000 0.000000 -1.000000
0.999697 0.000000 -0.024609
0.999697 0.000000 -0.024609
0.999697 0.000000 -0.024609
0.999697 0.000000 -0.024609
0.999697 0.000000 -0.024609
0.999697 0.000000 -0.024609
0.000000 0.000000 -1.000000
0.000000 0.000000 -1.000000
0.000000 0.000000 -1.000000
-0.000000 -0.000000 -1.000000
-0.000000 -0.000000 -1.000000
-0.000000 -0.000000 -1.000000
-0.000000 0.000000 -1.000000
-0.000000 0.000000 -1.000000
-0.000000 0.000000 -1.000000
-0.000000 -0.000000 -1.000000
-0.000000 -0.000000 -1.000000
-0.000000 -0.000000 -1.000000
0.707696 0.706299 -0.017557
0.707696 0.706299 -0.017557
0.707696 0.706299 -0.017557
0.707697 0.706298 -0.017558
0.707697 0.706298 -0.017558
0.707697 0.706298 -0.017558
-0.707738 0.706339 -0.013864
-0.707738 0.706339 -0.013864
-0.707738 0.706339 -0.013864
-0.707737 0.706340 -0.013867
-0.707737 0.706340 -0.013867
-0.707737 0.706340 -0.013867
0.000000 0.000000 -1.000000
0.000000 0.000000 -1.000000
0.000000 0.000000 -1.000000
-0.000000 -0.000001 -1.000000
-0.000000 -0.000001 -1.000000
-0.000000 -0.000001 -1.000000
-0.707794 -0.706392 -0.006189
-0.707794 -0.706392 -0.006189
-0.707794 -0.706392 -0.006189
-0.707793 -0.706393 -0.006188
-0.707793 -0.706393 -0.006188
-0.707793 -0.706393 -0.006188
0.707774 -0.706374 -0.009619
0.707774 -0.706374 -0.009619
0.707774 -0.706374 -0.009619
0.707770 -0.706378 -0.009625
0.707770 -0.706378 -0.009625
0.707769 -0.706378 -0.009625
0.000000 0.000000 -1.000000
0.000000 0.000000 -1.000000
0.000000 0.000000 -1.000000
-0.000000 0.000000 -1.000000
-0.000000 0.000000 -1.000000
-0.000000 0.000000 -1.000000
0.000000 0.000000 -1.000000
0.000000 0.000000 -1.000000
0.000000 0.000000 -1.000000
-0.000000 -0.000000 -1.000000
-0.000000 -0.000000 -1.000000
-0.000000 -0.000000 -1.000000
0.000000 -0.000003 -1.000000
0.000000 -0.000003 -1.000000
0.000000 -0.000003 -1.000000
-0.000000 -0.000001 -1.000000
-0.000000 -0.000001 -1.000000
-0.000000 -0.000001 -1.000000
0.382725 0.923814 -0.009494
0.382725 0.923814 -0.009494
0.382725 0.923814 -0.009494
0.382732 0.923810 -0.009499
0.382732 0.923811 -0.009499
0.382732 0.923810 -0.009499
-0.382731 0.923830 -0.007502
-0.382731 0.923829 -0.007502
-0.382731 0.923829 -0.007502
-0.382734 0.923828 -0.007500
-0.382734 0.923828 -0.007500
-0.382734 0.923828 -0.007500
-0.000000 0.000001 -1.000000
-0.000000 0.000001 -1.000000
-0.000000 0.000001 -1.000000
0.000000 0.000000 -1.000000
0.000000 0.000000 -1.000000
0.000000 0.000000 -1.000000
0.000000 0.000000 -1.000000
0.000000 0.000000 -1.000000
0.000000 0.000000 -1.000000
0.924150 0.381342 -0.022926
0.924150 0.381342 -0.022926
0.924150 0.381342 -0.022926
0.924149 0.381344 -0.022925
0.924149 0.381344 -0.022925
0.924149 0.381344 -0.022925
-0.000000 0.000000 -1.000000
-0.000000 0.000000 -1.000000
-0.000000 0.000000 -1.000000
-0.000000 -0.000000 -1.000000
-0.000000 -0.000000 -1.000000
-0.000000 -0.000000 -1.000000
0.000000 0.000000 -1.000000
0.000000 0.000000 -1.000000
0.000000 0.000000 -1.000000
-0.924239 0.381384 -0.018102
-0.924239 0.381384 -0.018102
-0.924239 0.381384 -0.018102
-0.924241 0.381381 -0.018100
-0.924241 0.381381 -0.018100
-0.924241 0.381381 -0.018100
-0.382741 -0.923852 0.002640
-0.382741 -0.923852 0.002640
-0.382741 -0.923852 0.002640
-0.382745 -0.923850 0.002637
-0.382745 -0.923850 0.002637
-0.382745 -0.923850 0.002637
0.382745 -0.923854 0.000780
0.382745 -0.923854 0.000780
0.382745 -0.923854 0.000780
0.382745 -0.923854 0.000779
0.382745 -0.923854 0.000779
0.382745 -0.923854 0.000779
-0.000000 0.000001 -1.000000
-0.000000 0.000001 -1.000000
-0.000000 0.000001 -1.000000
-0.000000 0.000001 -1.000000
-0.000000 0.000001 -1.000000
-0.000000 0.000001 -1.000000
0.000000 0.000000 -1.000000
0.000000 0.000000 -1.000000
0.000000 0.000000 -1.000000
-0.924300 -0.381409 -0.014060
-0.924299 -0.381409 -0.014060
-0.924299 -0.381409 -0.014060
-0.924300 -0.381408 -0.014061
-0.924300 -0.381408 -0.014061
-0.924300 -0.381408 -0.014061
-0.000000 0.000000 -1.000000
-0.000000 0.000000 -1.000000
-0.000000 0.000000 -1.000000
-0.000000 -0.000000 -1.000000
-0.000000 -0.000000 -1.000000
-0.000000 -0.000000 -1.000000
-0.000000 0.000000 -1.000000
-0.000000 0.000000 -1.000000
-0.000000 0.000000 -1.000000
0.924233 -0.381379 -0.018537
0.924233 -0.381379 -0.018537
0.924233 -0.381379 -0.018537
0.924232 -0.381380 -0.018538
0.924232 -0.381380 -0.018538
0.924232 -0.381380 -0.018538
</float_array>
          <technique_common>
            <accessor source="#apm400_chassis.jbeam-Normal0-array" count="1152" stride="3">
              <param name="X" type="float"/>
              <param name="Y" type="float"/>
              <param name="Z" type="float"/>
            </accessor>
          </technique_common>
        </source>
        <source id="apm400_chassis.jbeam-UV0">
          <float_array id="apm400_chassis.jbeam-UV0-array" count="512">
0.000000 0.000000
1.000000 0.000000
0.000000 0.000000
1.000000 0.000000
0.000000 1.000000
1.000000 1.000000
1.000000 0.000000
0.000000 0.000000
1.000000 0.000000
0.000000 0.000000
1.000000 0.000000
0.000000 0.000000
0.000000 0.000000
1.000000 0.000000
1.000000 0.000000
0.000000 0.000000
1.000000 0.000000
0.000000 0.000000
1.000000 0.000000
0.000000 0.000000
0.500000 0.500000
0.500000 0.500000
0.500000 0.500000
0.500000 0.500000
0.500000 0.500000
0.500000 0.500000
0.500000 0.500000
0.500000 0.500000
0.500000 0.500000
0.500000 0.500000
0.500000 0.500000
0.500000 0.500000
0.000000 0.000000
1.000000 0.000000
0.000000 0.000000
1.000000 0.000000
0.000000 1.000000
1.000000 1.000000
1.000000 0.000000
0.000000 0.000000
1.000000 0.000000
0.000000 0.000000
1.000000 0.000000
0.000000 0.000000
0.000000 0.000000
1.000000 0.000000
1.000000 0.000000
0.000000 0.000000
1.000000 0.000000
0.000000 0.000000
1.000000 0.000000
0.000000 0.000000
0.500000 0.500000
0.500000 0.500000
0.500000 0.500000
0.500000 0.500000
0.500000 0.500000
0.500000 0.500000
0.500000 0.500000
0.500000 0.500000
0.500000 0.500000
0.500000 0.500000
0.500000 0.500000
0.500000 0.500000
1.000000 0.000000
1.000000 1.000000
0.000000 1.000000
0.000000 0.000000
0.000000 0.000000
1.000000 0.000000
1.000000 0.000000
0.000000 0.000000
1.000000 0.000000
0.000000 0.000000
1.000000 0.000000
0.000000 0.000000
1.000000 0.000000
0.000000 0.000000
1.000000 0.000000
0.000000 0.000000
0.500000 0.500000
0.500000 0.500000
0.500000 0.500000
0.500000 0.500000
1.000000 0.000000
0.000000 0.000000
1.000000 0.000000
0.000000 0.000000
0.500000 0.500000
0.500000 0.500000
0.500000 0.500000
0.500000 0.500000
0.500000 0.500000
0.500000 0.500000
0.500000 0.500000
0.500000 0.500000
1.000000 0.000000
1.000000 1.000000
0.000000 1.000000
0.000000 0.000000
0.000000 0.000000
1.000000 0.000000
1.000000 0.000000
0.000000 0.000000
1.000000 0.000000
0.000000 0.000000
1.000000 0.000000
0.000000 0.000000
1.000000 0.000000
0.000000 0.000000
1.000000 0.000000
0.000000 0.000000
0.500000 0.500000
0.500000 0.500000
0.500000 0.500000
0.500000 0.500000
1.000000 0.000000
0.000000 0.000000
1.000000 0.000000
0.000000 0.000000
0.500000 0.500000
0.500000 0.500000
0.500000 0.500000
0.500000 0.500000
0.500000 0.500000
0.500000 0.500000
0.500000 0.500000
0.500000 0.500000
0.000000 0.000000
1.000000 0.000000
0.000000 1.000000
1.000000 1.000000
0.000000 0.000000
1.000000 0.000000
0.000000 1.000000
1.000000 1.000000
0.000000 0.000000
1.000000 0.000000
0.000000 1.000000
1.000000 1.000000
1.000000 0.000000
0.000000 0.000000
1.000000 1.000000
0.000000 1.000000
1.000000 0.000000
0.000000 0.000000
1.000000 1.000000
0.000000 1.000000
1.000000 0.000000
0.000000 0.000000
1.000000 1.000000
0.000000 1.000000
0.000000 0.000000
1.000000 0.000000
0.000000 1.000000
1.000000 1.000000
1.000000 0.000000
0.000000 0.000000
1.000000 1.000000
0.000000 1.000000
1.000000 0.000000
0.000000 0.000000
1.000000 1.000000
0.000000 1.000000
1.000000 0.000000
0.000000 0.000000
1.000000 1.000000
0.000000 1.000000
0.500000 0.500000
0.500000 0.500000
0.500000 0.500000
0.500000 0.500000
0.500000 0.500000
0.500000 0.500000
0.500000 0.500000
0.500000 0.500000
0.500000 0.500000
0.500000 0.500000
0.500000 0.500000
0.500000 0.500000
0.500000 0.500000
0.500000 0.500000
0.500000 0.500000
0.500000 0.500000
0.500000 0.500000
0.500000 0.500000
0.500000 0.500000
0.500000 0.500000
0.500000 0.500000
0.500000 0.500000
0.500000 0.500000
0.500000 0.500000
0.000000 0.000000
1.000000 0.000000
0.000000 1.000000
1.000000 1.000000
0.000000 0.000000
1.000000 0.000000
0.000000 1.000000
1.000000 1.000000
0.000000 0.000000
1.000000 0.000000
0.000000 1.000000
1.000000 1.000000
1.000000 0.000000
0.000000 0.000000
1.000000 1.000000
0.000000 1.000000
1.000000 0.000000
0.000000 0.000000
1.000000 1.000000
0.000000 1.000000
1.000000 0.000000
0.000000 0.000000
1.000000 1.000000
0.000000 1.000000
0.000000 0.000000
1.000000 0.000000
0.000000 1.000000
1.000000 1.000000
1.000000 0.000000
0.000000 0.000000
1.000000 1.000000
0.000000 1.000000
1.000000 0.000000
0.000000 0.000000
1.000000 1.000000
0.000000 1.000000
1.000000 0.000000
0.000000 0.000000
1.000000 1.000000
0.000000 1.000000
0.500000 0.500000
0.500000 0.500000
0.500000 0.500000
0.500000 0.500000
0.500000 0.500000
0.500000 0.500000
0.500000 0.500000
0.500000 0.500000
0.500000 0.500000
0.500000 0.500000
0.500000 0.500000
0.500000 0.500000
0.500000 0.500000
0.500000 0.500000
0.500000 0.500000
0.500000 0.500000
0.500000 0.500000
0.500000 0.500000
0.500000 0.500000
0.500000 0.500000
0.500000 0.500000
0.500000 0.500000
0.500000 0.500000
0.500000 0.500000
</float_array>
          <technique_common>
            <accessor source="#apm400_chassis.jbeam-UV0-array" count="256" stride="2">
              <param name="S" type="float"/>
              <param name="T" type="float"/>
            </accessor>
          </technique_common>
        </source>
        <vertices id="apm400_chassis.jbeam-VERTEX">
          <input semantic="POSITION" source="#apm400_chassis.jbeam-POSITION"/>
        </vertices>
        <triangles count="384"><input semantic="VERTEX" offset="0" source="#apm400_chassis.jbeam-VERTEX"/><input semantic="NORMAL" offset="1" source="#apm400_chassis.jbeam-Normal0"/><input semantic="TEXCOORD" offset="2" set="0" source="#apm400_chassis.jbeam-UV0"/><p> 2 0 5 0 1 3 3 2 4 1 3 2 3 4 4 0 5 3 2 6 1 3 7 0 4 8 6 5 9 7 4 10 6 3 11 0 4 12 6 5 13 7 6 14 8 7 15 9 6 16 8 5 17 7 6 18 8 7 19 9 8 20 10 25 21 11 24 22 10 7 23 9 1 24 13 0 25 12 10 26 14 11 27 15 10 28 14 0 29 12 10 30 14 11 31 15 12 32 16 13 33 17 12 34 16 11 35 15 12 36 16 13 37 17 14 38 18 27 39 19 26 40 18 13 41 17 21 42 11 24 43 20 17 44 21 23 45 19 26 46 22 19 47 23 20 48 10 7 49 9 16 50 20 22 51 18 13 52 17 18 53 22 9 54 11 24 55 24 21 56 25 15 57 19 26 58 26 23 59 27 8 60 10 7 61 9 20 62 28 17 63 11 24 64 24 25 65 29 16 66 10 7 67 9 24 68 24 14 69 18 13 70 17 22 71 30 19 72 19 26 73 26 27 74 31 18 75 18 13 76 17 26 77 26 56 78 96 58 79 97 59 80 98 59 81 98 57 82 99 56 83 96 59 84 105 58 85 104 60 86 106 60 87 106 61 88 107 59 89 105 61 90 107 60 91 106 62 92 108 62 93 108 63 94 109 61 95 107 63 96 109 62 97 108 64 98 110 80 99 110 81 100 111 63 101 109 56 102 100 57 103 101 66 104 102 66 105 102 67 106 103 56 107 100 67 108 103 66 109 102 68 110 116 68 111 116 69 112 117 67 113 103 69 114 117 68 115 116 70 116 118 82 117 118 83 118 119 69 119 117 80 120 114 77 121 111 73 122 124 82 123 122 79 124 119 75 125 126 63 126 109 76 127 110 72 128 114 69 129 117 78 130 118 74 131 122 80 132 112 65 133 111 77 134 115 82 135 120 71 136 119 79 137 123 63 138 109 64 139 110 76 140 113 80 141 112 73 142 111 81 143 125 63 144 109 72 145 110 80 146 112 69 147 117 70 148 118 78 149 121 82 150 120 75 151 119 83 152 127 69 153 117 74 154 118 82 155 120 0 156 35 2 157 37 30 158 65 30 159 65 28 160 64 0 161 35 3 162 36 1 163 34 29 164 67 29 165 67 31 166 66 3 167 36 2 168 33 4 169 38 32 170 74 32 171 74 30 172 72 2 173 33 5 174 39 3 175 32 31 176 73 31 177 73 33 178 75 5 179 39 4 180 38 6 181 40 34 182 76 34 183 76 32 184 74 4 185 38 7 186 41 5 187 39 33 188 75 33 189 75 35 190 77 7 191 41 6 192 40 8 193 42 36 194 78 36 195 78 34 196 76 6 197 40 25 198 43 7 199 41 35 200 77 35 201 77 53 202 79 25 203 43 1 204 45 10 205 46 38 206 70 38 207 70 29 208 69 1 209 45 11 210 47 0 211 44 28 212 68 28 213 68 39 214 71 11 215 47 10 216 46 12 217 48 40 218 84 40 219 84 38 220 70 10 221 46 13 222 49 11 223 47 39 224 71 39 225 71 41 226 85 13 227 49 12 228 48 14 229 50 42 230 86 42 231 86 40 232 84 12 233 48 27 234 51 13 235 49 41 236 85 41 237 85 55 238 87 27 239 51 21 240 43 17 241 53 45 242 92 45 243 92 49 244 79 21 245 43 23 246 51 19 247 55 47 248 94 47 249 94 51 250 87 23 251 51 20 252 42 16 253 52 44 254 82 44 255 82 48 256 78 20 257 42 22 258 50 18 259 54 46 260 90 46 261 90 50 262 86 22 263 50 24 264 56 9 265 43 37 266 79 37 267 79 52 268 80 24 269 56 9 270 43 21 271 57 49 272 83 49 273 83 37 274 79 9 275 43 26 276 58 15 277 51 43 278 87 43 279 87 54 280 88 26 281 58 15 282 51 23 283 59 51 284 91 51 285 91 43 286 87 15 287 51 8 288 42 20 289 60 48 290 81 48 291 81 36 292 78 8 293 42 17 294 43 25 295 61 53 296 93 53 297 93 45 298 79 17 299 43 16 300 42 24 301 56 52 302 80 52 303 80 44 304 78 16 305 42 14 306 50 22 307 62 50 308 89 50 309 89 42 310 86 14 311 50 19 312 51 27 313 63 55 314 95 55 315 95 47 316 87 19 317 51 18 318 50 26 319 58 54 320 88 54 321 88 46 322 86 18 323 50 28 324 64 30 325 65 58 326 97 58 327 97 56 328 96 28 329 64 31 330 66 29 331 67 57 332 99 57 333 99 59 334 98 31 335 66 30 336 72 32 337 74 60 338 106 60 339 106 58 340 104 30 341 72 33 342 75 31 343 73 59 344 105 59 345 105 61 346 107 33 347 75 32 348 74 34 349 76 62 350 108 62 351 108 60 352 106 32 353 74 35 354 77 33 355 75 61 356 107 61 357 107 63 358 109 35 359 77 34 360 76 36 361 78 64 362 110 64 363 110 62 364 108 34 365 76 53 366 79 35 367 77 63 368 109 63 369 109 81 370 111 53 371 79 29 372 69 38 373 70 66 374 102 66 375 102 57 376 101 29 377 69 39 378 71 28 379 68 56 380 100 56 381 100 67 382 103 39 383 71 38 384 70 40 385 84 68 386 116 68 387 116 66 388 102 38 389 70 41 390 85 39 391 71 67 392 103 67 393 103 69 394 117 41 395 85 40 396 84 42 397 86 70 398 118 70 399 118 68 400 116 40 401 84 55 402 87 41 403 85 69 404 117 69 405 117 83 406 119 55 407 87 49 408 79 45 409 92 73 410 124 73 411 124 77 412 111 49 413 79 51 414 87 47 415 94 75 416 126 75 417 126 79 418 119 51 419 87 48 420 78 44 421 82 72 422 114 72 423 114 76 424 110 48 425 78 50 426 86 46 427 90 74 428 122 74 429 122 78 430 118 50 431 86 52 432 80 37 433 79 65 434 111 65 435 111 80 436 112 52 437 80 37 438 79 49 439 83 77 440 115 77 441 115 65 442 111 37 443 79 54 444 88 43 445 87 71 446 119 71 447 119 82 448 120 54 449 88 43 450 87 51 451 91 79 452 123 79 453 123 71 454 119 43 455 87 36 456 78 48 457 81 76 458 113 76 459 113 64 460 110 36 461 78 45 462 79 53 463 93 81 464 125 81 465 125 73 466 111 45 467 79 44 468 78 52 469 80 80 470 112 80 471 112 72 472 110 44 473 78 42 474 86 50 475 89 78 476 121 78 477 121 70 478 118 42 479 86 47 480 87 55 481 95 83 482 127 83 483 127 75 484 119 47 485 87 46 486 86 54 487 88 82 488 120 82 489 120 74 490 118 46 491 86 2 492 139 0 493 137 3 494 138 1 495 136 3 496 138 0 497 137 84 498 136 85 499 137 87 500 139 87 501 139 86 502 138 84 503 136 0 504 132 1 505 133 85 506 135 85 507 135 84 508 134 0 509 132 1 510 128 3 511 129 87 512 131 87 513 131 85 514 130 1 515 128 9 516 149 24 517 148 108 518 150 108 519 150 109 520 151 9 521 149 2 522 128 0 523 129 84 524 131 84 525 131 86 526 130 2 527 128 2 528 133 3 529 132 4 530 140 5 531 141 4 532 140 3 533 132 86 534 135 87 535 134 89 536 143 89 537 143 88 538 142 86 539 135 87 540 134 3 541 132 5 542 141 5 543 141 89 544 143 87 545 134 2 546 133 86 547 135 88 548 142 88 549 142 4 550 140 2 551 133 4 552 140 5 553 141 6 554 144 7 555 145 6 556 144 5 557 141 4 558 140 88 559 142 90 560 146 90 561 146 6 562 144 4 563 140 88 564 142 89 565 143 91 566 147 91 567 147 90 568 146 88 569 142 89 570 143 5 571 141 7 572 145 7 573 145 91 574 147 89 575 143 6 576 144 7 577 145 8 578 148 25 579 149 24 580 148 7 581 145 6 582 144 90 583 146 104 584 150 104 585 150 8 586 148 6 587 144 90 588 146 91 589 147 93 590 151 109 591 151 104 592 150 90 593 146 91 594 147 7 595 145 25 596 149 25 597 149 93 598 151 91 599 147 15 600 165 26 601 164 110 602 166 110 603 166 111 604 167 15 605 165 1 606 153 0 607 152 10 608 156 11 609 157 10 610 156 0 611 152 85 612 155 84 613 154 95 614 159 95 615 159 94 616 158 85 617 155 84 618 154 0 619 152 11 620 157 11 621 157 95 622 159 84 623 154 1 624 153 85 625 155 94 626 158 94 627 158 10 628 156 1 629 153 10 630 156 11 631 157 12 632 160 13 633 161 12 634 160 11 635 157 10 636 156 94 637 158 96 638 162 96 639 162 12 640 160 10 641 156 94 642 158 95 643 159 97 644 163 97 645 163 96 646 162 94 647 158 95 648 159 11 649 157 13 650 161 13 651 161 97 652 163 95 653 159 12 654 160 13 655 161 14 656 164 27 657 165 26 658 164 13 659 161 12 660 160 96 661 162 106 662 166 106 663 166 14 664 164 12 665 160 96 666 162 97 667 163 99 668 167 111 669 167 106 670 166 96 671 162 97 672 163 13 673 161 27 674 165 27 675 165 99 676 167 97 677 163 21 678 149 24 679 168 17 680 169 109 681 170 100 682 171 92 683 150 23 684 165 26 685 172 19 686 173 111 687 174 102 688 175 98 689 166 16 690 168 20 691 148 100 692 171 92 693 150 100 694 171 20 695 148 17 696 169 21 697 149 105 698 151 101 699 170 105 700 151 21 701 149 20 702 148 7 703 145 16 704 168 90 705 146 105 706 151 101 707 170 18 708 172 22 709 164 102 710 175 98 711 166 102 712 175 22 713 164 19 714 173 23 715 165 107 716 167 103 717 174 107 718 167 23 719 165 22 720 164 13 721 161 18 722 172 96 723 162 107 724 167 103 725 174 9 726 149 24 727 176 21 728 177 109 729 178 108 730 179 100 731 150 15 732 165 26 733 180 23 734 181 111 735 182 110 736 183 102 737 166 24 738 176 16 739 148 108 740 179 100 741 150 108 742 179 16 743 148 21 744 177 9 745 149 101 746 151 109 747 178 101 748 151 9 749 149 8 750 148 7 751 145 20 752 184 17 753 149 24 754 176 25 755 185 16 756 148 7 757 145 24 758 176 20 759 184 8 760 148 92 761 150 104 762 186 92 763 150 8 764 148 90 765 146 93 766 151 105 767 187 109 768 178 92 769 150 104 770 186 90 771 146 101 772 151 109 773 178 105 774 187 93 775 151 17 776 149 25 777 185 17 778 149 93 779 151 26 780 180 18 781 164 110 782 183 102 783 166 110 784 183 18 785 164 23 786 181 15 787 165 103 788 167 111 789 182 103 790 167 15 791 165 14 792 164 13 793 161 22 794 188 19 795 165 26 796 180 27 797 189 18 798 164 13 799 161 26 800 180 22 801 188 14 802 164 98 803 166 106 804 190 98 805 166 14 806 164 96 807 162 99 808 167 107 809 191 111 810 182 98 811 166 106 812 190 96 813 162 103 814 167 111 815 182 107 816 191 99 817 167 19 818 165 27 819 189 19 820 165 99 821 167 59 822 203 57 823 201 58 824 202 56 825 200 58 826 202 57 827 201 112 828 200 113 829 201 115 830 203 115 831 203 114 832 202 112 833 200 57 834 196 56 835 197 113 836 199 113 837 199 112 838 198 57 839 196 56 840 192 58 841 193 115 842 195 115 843 195 113 844 194 56 845 192 80 846 213 65 847 212 136 848 214 136 849 214 137 850 215 80 851 213 59 852 192 57 853 193 112 854 195 112 855 195 114 856 194 59 857 192 59 858 197 58 859 196 61 860 204 60 861 205 61 862 204 58 863 196 114 864 199 115 865 198 117 866 207 117 867 207 116 868 206 114 869 199 115 870 198 58 871 196 60 872 205 60 873 205 117 874 207 115 875 198 59 876 197 114 877 199 116 878 206 116 879 206 61 880 204 59 881 197 61 882 204 60 883 205 63 884 208 62 885 209 63 886 208 60 887 205 61 888 204 116 889 206 118 890 210 118 891 210 63 892 208 61 893 204 116 894 206 117 895 207 119 896 211 119 897 211 118 898 210 116 899 206 117 900 207 60 901 205 62 902 209 62 903 209 119 904 211 117 905 207 63 906 208 62 907 209 81 908 212 64 909 213 65 910 212 62 911 209 63 912 208 118 913 210 132 914 214 132 915 214 81 916 212 63 917 208 118 918 210 119 919 211 121 920 215 137 921 215 132 922 214 118 923 210 119 924 211 62 925 209 64 926 213 64 927 213 121 928 215 119 929 211 82 930 229 71 931 228 138 932 230 138 933 230 139 934 231 82 935 229 56 936 217 57 937 216 67 938 220 66 939 221 67 940 220 57 941 216 113 942 219 112 943 218 123 944 223 123 945 223 122 946 222 113 947 219 112 948 218 57 949 216 66 950 221 66 951 221 123 952 223 112 953 218 56 954 217 113 955 219 122 956 222 122 957 222 67 958 220 56 959 217 67 960 220 66 961 221 69 962 224 68 963 225 69 964 224 66 965 221 67 966 220 122 967 222 124 968 226 124 969 226 69 970 224 67 971 220 122 972 222 123 973 223 125 974 227 125 975 227 124 976 226 122 977 222 123 978 223 66 979 221 68 980 225 68 981 225 125 982 227 123 983 223 69 984 224 68 985 225 83 986 228 70 987 229 71 988 228 68 989 225 69 990 224 124 991 226 134 992 230 134 993 230 83 994 228 69 995 224 124 996 226 125 997 227 127 998 231 139 999 231 134 1000 230 124 1001 226 125 1002 227 68 1003 225 70 1004 229 70 1005 229 127 1006 231 125 1007 227 72 1008 213 65 1009 232 76 1010 233 137 1011 234 128 1012 235 120 1013 214 74 1014 229 71 1015 236 78 1016 237 139 1017 238 130 1018 239 126 1019 230 77 1020 232 73 1021 212 128 1022 235 120 1023 214 128 1024 235 73 1025 212 76 1026 233 72 1027 213 133 1028 215 129 1029 234 133 1030 215 72 1031 213 73 1032 212 62 1033 209 77 1034 232 118 1035 210 133 1036 215 129 1037 234 79 1038 236 75 1039 228 130 1040 239 126 1041 230 130 1042 239 75 1043 228 78 1044 237 74 1045 229 135 1046 231 131 1047 238 135 1048 231 74 1049 229 75 1050 228 68 1051 225 79 1052 236 124 1053 226 135 1054 231 131 1055 238 80 1056 213 65 1057 240 72 1058 241 137 1059 242 136 1060 243 128 1061 214 82 1062 229 71 1063 244 74 1064 245 139 1065 246 138 1066 247 130 1067 230 65 1068 240 77 1069 212 136 1070 243 128 1071 214 136 1072 243 77 1073 212 72 1074 241 80 1075 213 129 1076 215 137 1077 242 129 1078 215 80 1079 213 81 1080 212 62 1081 209 73 1082 248 76 1083 213 65 1084 240 64 1085 249 77 1086 212 62 1087 209 65 1088 240 73 1089 248 81 1090 212 120 1091 214 132 1092 250 120 1093 214 81 1094 212 118 1095 210 121 1096 215 133 1097 251 137 1098 242 120 1099 214 132 1100 250 118 1101 210 129 1102 215 137 1103 242 133 1104 251 121 1105 215 76 1106 213 64 1107 249 76 1108 213 121 1109 215 71 1110 244 79 1111 228 138 1112 247 130 1113 230 138 1114 247 79 1115 228 74 1116 245 82 1117 229 131 1118 231 139 1119 246 131 1120 231 82 1121 229 83 1122 228 68 1123 225 75 1124 252 78 1125 229 71 1126 244 70 1127 253 79 1128 228 68 1129 225 71 1130 244 75 1131 252 83 1132 228 126 1133 230 134 1134 254 126 1135 230 83 1136 228 124 1137 226 127 1138 231 135 1139 255 139 1140 246 126 1141 230 134 1142 254 124 1143 226 131 1144 231 139 1145 246 135 1146 255 127 1147 231 78 1148 229 70 1149 253 78 1150 229 127 1151 231</p></triangles>
      </mesh>
    </geometry>
  </library_geometries>
  <library_lights>
    <light id="SceneAmbient" name="SceneAmbient">
      <technique_common>
        <ambient>
          <color>1.000000 1.000000 1.000000</color>
        </ambient>
      </technique_common>
    </light>
  </library_lights>
  <library_visual_scenes>
    <visual_scene id="apm400nb" name="apm400nb">
      <node name="apm400_glass.jbeam" id="apm400_glass.jbeam" layer="Body (NB)" sid="apm400_glass.jbeam"><matrix sid="matrix">1.000000 -0.000000 -0.000000 -0.004102 0.000000 0.000000 1.030933 2.115574 -0.000000 -1.030933 0.000000 -0.004762 0.000000 0.000000 0.000000 1.000000</matrix><instance_geometry url="#apm400_glass.jbeam-lib"/><extra><technique profile="FCOLLADA"><visibility>1.000000</visibility></technique></extra></node>
      <node name="apm400_chassis.jbeam" id="apm400_chassis.jbeam" layer="Body (NB)" sid="apm400_chassis.jbeam"><matrix sid="matrix">1.000000 0.000000 0.000000 0.000000 0.000000 0.000000 1.000000 3.479800 0.000000 -1.000000 0.000000 0.000000 0.000000 0.000000 0.000000 1.000000</matrix><instance_geometry url="#apm400_chassis.jbeam-lib"/><extra><technique profile="FCOLLADA"><visibility>1.000000</visibility></technique></extra></node>
      <extra><technique profile="MAX3D"><frame_rate>30.000000</frame_rate></technique><technique profile="FCOLLADA"><start_time>0.000000</start_time><end_time>6.000000</end_time></technique></extra>
      <node>
        <instance_light url="#SceneAmbient"></instance_light>
      </node>
    </visual_scene>
  </library_visual_scenes>
  <scene>
    <instance_visual_scene url="#apm400nb"></instance_visual_scene>
  </scene>
</COLLADA>
