{
    "0-60 mph": 9.5,
    "Weight": 1485,
    "Performance Class":"5",
    "Drivetrain":"FWD",
    "Body Style":"Wagon",
    "Braking G":1.116,
    "Value":48050,
    "Description":"Eco-touring model with 4-cylinder engine and hybrid drivetrain",
    "Configuration":"854eh (Eco Hybrid)",
    "Transmission":"eCVT",
    "Config Type":"Factory",
    "default_color":"Sky Blue",
    "Off-Road Score":27,
    "Torque": 280,
    "Top Speed": 60.35,
    "Propulsion": "ICE + Lithium-Ion",
    "Fuel Type": "Gasoline"
    }